Código_Maq_Mealy/MealyCovid/simulation/qsim/MealyCovid.msim.vcd
$comment
	File created using the following command:
		vcd file MealyCovid.msim.vcd -direction
$end
$date
	Thu Jun 04 22:29:50 2020
$end
$version
	ModelSim Version 10.3d
$end
$timescale
	1ps
$end

$scope module MealyCovid_vlg_vec_tst $end
$var reg 1 ! clk $end
$var reg 1 " in1 $end
$var wire 1 # saida_mealy $end
$var wire 1 $ sampler $end

$scope module i1 $end
$var wire 1 % gnd $end
$var wire 1 & vcc $end
$var wire 1 ' unknown $end
$var tri1 1 ( devclrn $end
$var tri1 1 ) devpor $end
$var tri1 1 * devoe $end
$var wire 1 + saida_mealy~output_o $end
$var wire 1 , in1~input_o $end
$var wire 1 - clk~input_o $end
$var wire 1 . Selector0~0_combout $end
$var wire 1 / present_state.temp~q $end
$var wire 1 0 next_state.febre~0_combout $end
$var wire 1 1 present_state.febre~q $end
$var wire 1 2 Selector1~0_combout $end
$var wire 1 3 present_state.base_dados~q $end
$var wire 1 4 saida_mealy~0_combout $end
$upscope $end
$upscope $end
$enddefinitions $end
#0
$dumpvars
1!
1"
0#
x$
0%
1&
x'
1(
1)
1*
0+
1,
1-
1.
0/
10
01
02
03
04
$end
#10000
0!
0$
0-
#15000
1!
1$
1-
11
1/
00
12
#20000
0!
0$
0-
#40000
1!
1$
1-
13
01
02
14
0.
1+
1#
#60000
0!
0$
0-
#65000
1!
1$
1-
03
0/
10
04
1.
0+
0#
#70000
0!
0$
0-
#85000
1!
1$
1-
11
1/
00
12
#95000
0!
0$
0-
#105000
1!
1$
1-
13
01
02
14
0.
1+
1#
#110000
0!
0$
0-
#115000
1!
1$
1-
03
0/
10
04
1.
0+
0#
#145000
0!
0$
0-
#155000
1!
1$
1-
11
1/
00
12
#160000
0!
0$
0-
#165000
1!
1$
1-
13
01
02
14
0.
1+
1#
#180000
0!
0$
0-
#185000
1!
1$
1-
03
0/
10
04
1.
0+
0#
#195000
0!
0$
0-
#200000
1!
1$
1-
11
1/
00
12
#205000
0!
0$
0-
#210000
1!
1$
1-
13
01
02
14
0.
1+
1#
#215000
0!
0$
0-
#225000
1!
1$
1-
03
0/
10
04
1.
0+
0#
#230000
0!
0$
0-
#260000
1!
1$
1-
11
1/
00
12
#270000
0!
0$
0-
#280000
1!
1$
1-
13
01
02
14
0.
1+
1#
#285000
0!
0$
0-
#300000
1!
1$
1-
03
0/
10
04
1.
0+
0#
#305000
0!
0$
0-
#315000
1!
1$
1-
11
1/
00
12
#325000
0!
0$
0-
#340000
1!
1$
1-
13
01
02
14
0.
1+
1#
#365000
0!
0$
0-
#375000
1!
1$
1-
03
0/
10
04
1.
0+
0#
#395000
0!
0$
0-
#400000
1!
1$
1-
11
1/
00
12
#405000
0!
0$
0-
#435000
1!
1$
1-
13
01
02
14
0.
1+
1#
#440000
0!
0$
0-
#455000
1!
1$
1-
03
0/
10
04
1.
0+
0#
#460000
0!
0$
0-
#485000
1!
1$
1-
11
1/
00
12
#525000
0!
0$
0-
#540000
1!
1$
1-
13
01
02
14
0.
1+
1#
#550000
0!
0$
0-
#580000
1!
1$
1-
03
0/
10
04
1.
0+
0#
#585000
0!
0$
0-
#595000
1!
1$
1-
11
1/
00
12
#600000
0!
0$
0-
#610000
1!
1$
1-
13
01
02
14
0.
1+
1#
#620000
0!
0$
0-
#625000
1!
1$
1-
03
0/
10
04
1.
0+
0#
#630000
0!
0$
0-
#650000
1!
1$
1-
11
1/
00
12
#655000
0!
0$
0-
#660000
1!
1$
1-
13
01
02
14
0.
1+
1#
#665000
0!
0$
0-
#695000
1!
1$
1-
03
0/
10
04
1.
0+
0#
#700000
0!
0$
0-
#710000
1!
1$
1-
11
1/
00
12
#735000
0!
0$
0-
#750000
1!
1$
1-
13
01
02
14
0.
1+
1#
#760000
0!
0$
0-
#765000
1!
1$
1-
03
0/
10
04
1.
0+
0#
#775000
0!
0$
0-
#780000
1!
1$
1-
11
1/
00
12
#785000
0!
0$
0-
#795000
1!
1$
1-
13
01
02
14
0.
1+
1#
#805000
0!
0$
0-
#810000
1!
1$
1-
03
0/
10
04
1.
0+
0#
#820000
0!
0$
0-
#825000
1!
1$
1-
11
1/
00
12
#830000
0!
0$
0-
#835000
1!
1$
1-
13
01
02
14
0.
1+
1#
#840000
0!
0$
0-
#845000
1!
1$
1-
03
0/
10
04
1.
0+
0#
#855000
0!
0$
0-
#860000
1!
1$
1-
11
1/
00
12
#865000
0!
0$
0-
#870000
1!
1$
1-
13
01
02
14
0.
1+
1#
#880000
0!
0$
0-
#890000
1!
1$
1-
03
0/
10
04
1.
0+
0#
#895000
0!
0$
0-
#900000
1!
1$
1-
11
1/
00
12
#905000
0!
0$
0-
#915000
1!
1$
1-
13
01
02
14
0.
1+
1#
#925000
0!
0$
0-
#930000
1!
1$
1-
03
0/
10
04
1.
0+
0#
#945000
0!
0$
0-
#950000
1!
1$
1-
11
1/
00
12
#955000
0!
0$
0-
#965000
1!
1$
1-
13
01
02
14
0.
1+
1#
#975000
0!
0$
0-
#985000
1!
1$
1-
03
0/
10
04
1.
0+
0#
#995000
0!
0$
0-
