Código_Maq_Mealy/sistemabancario/simulation/qsim/sistemabancario.msim.vcd
$comment
	File created using the following command:
		vcd file sistemabancario.msim.vcd -direction
$end
$date
	Thu Jun 04 23:44:33 2020
$end
$version
	ModelSim Version 10.3d
$end
$timescale
	1ps
$end

$scope module sistemabancario_vlg_vec_tst $end
$var reg 1 ! clk $end
$var reg 4 " sequencia [3:0] $end
$var wire 1 # alarme $end
$var wire 1 $ sampler $end

$scope module i1 $end
$var wire 1 % gnd $end
$var wire 1 & vcc $end
$var wire 1 ' unknown $end
$var tri1 1 ( devclrn $end
$var tri1 1 ) devpor $end
$var tri1 1 * devoe $end
$var wire 1 + sequencia[0]~input_o $end
$var wire 1 , alarme~output_o $end
$var wire 1 - clk~input_o $end
$var wire 1 . sequencia[1]~input_o $end
$var wire 1 / sequencia[2]~input_o $end
$var wire 1 0 sequencia[3]~input_o $end
$var wire 1 1 next_state.um~0_combout $end
$var wire 1 2 present_state.um~q $end
$var wire 1 3 alarme~0_combout $end
$upscope $end
$upscope $end
$enddefinitions $end
#0
$dumpvars
0!
b1 "
0#
x$
0%
1&
x'
1(
1)
1*
1+
0,
0-
0.
0/
00
01
02
03
$end
#5000
b1001 "
b1101 "
b1111 "
b1110 "
0+
1.
1/
10
0$
#10000
b1100 "
0.
1$
#15000
b1000 "
b1001 "
1+
0/
0$
13
11
1,
1#
#20000
b1101 "
b1100 "
0+
1/
1$
03
01
0,
0#
#25000
b1110 "
1.
0$
#35000
b1111 "
1+
1$
#40000
b111 "
b101 "
b100 "
0+
0.
00
0$
#50000
b0 "
b1000 "
b1001 "
1+
0/
10
1$
13
11
1,
1#
#55000
b1011 "
b11 "
b10 "
0+
1.
00
0$
03
01
0,
0#
#60000
b11 "
1+
1$
#65000
b111 "
b110 "
0+
1/
0$
#70000
b1110 "
b1111 "
1+
10
1$
#75000
b1011 "
b11 "
b10 "
0+
0/
00
0$
#80000
b0 "
b100 "
b1100 "
b1101 "
1+
0.
1/
10
1$
#85000
b1111 "
b111 "
b110 "
0+
1.
00
0$
#90000
b111 "
1+
1$
#95000
b1111 "
10
0$
#100000
b1101 "
b101 "
0.
00
1$
#105000
b111 "
b1111 "
1.
10
0$
#110000
b1011 "
b1010 "
b1000 "
0+
0.
0/
1$
13
11
1,
1#
#115000
b1100 "
b1110 "
1.
1/
0$
03
01
0,
0#
#120000
b1100 "
0.
1$
#125000
b100 "
b0 "
0/
00
0$
#130000
b10 "
b1010 "
b1110 "
1.
1/
10
1$
#135000
b1111 "
b1101 "
b101 "
1+
0.
00
0$
#140000
b100 "
b1100 "
0+
10
1$
#145000
b1101 "
1+
0$
#155000
b1111 "
1.
1$
#160000
b111 "
b101 "
0.
00
0$
#165000
b1101 "
b1111 "
1.
10
1$
#170000
b1110 "
b110 "
0+
00
0$
#175000
b10 "
b11 "
b1011 "
1+
0/
10
1$
#180000
b1111 "
b111 "
1/
00
0$
#185000
b101 "
b1 "
0.
0/
1$
#190000
b101 "
1/
0$
#195000
b1 "
0/
1$
#200000
b1001 "
b1011 "
b1111 "
1.
1/
10
0$
#205000
b1110 "
b110 "
b100 "
b0 "
0+
0.
0/
00
1$
#210000
b1000 "
b1010 "
b1110 "
1.
1/
10
0$
#215000
b1100 "
0.
1$
#220000
b100 "
b0 "
b10 "
1.
0/
00
0$
#225000
b1010 "
b1110 "
1/
10
1$
#230000
b1111 "
b111 "
1+
00
0$
#235000
b110 "
b1110 "
0+
10
1$
#240000
b1010 "
b1011 "
b11 "
1+
0/
00
0$
#245000
b1 "
b1001 "
0.
10
1$
13
11
1,
1#
#250000
b1101 "
b1100 "
0+
1/
0$
03
01
0,
0#
#255000
b1110 "
b110 "
b111 "
1+
1.
00
1$
#260000
b101 "
0.
0$
#265000
b1 "
b1001 "
0/
10
1$
13
11
1,
1#
#275000
b1011 "
b1111 "
1.
1/
0$
03
01
0,
0#
#280000
b111 "
b101 "
b1 "
0.
0/
00
1$
#285000
b0 "
b10 "
b110 "
0+
1.
1/
0$
#290000
b1110 "
b1111 "
1+
10
1$
#295000
b1101 "
b101 "
b100 "
0+
0.
00
0$
#300000
b0 "
b10 "
b1010 "
1.
0/
10
1$
#305000
b10 "
00
0$
#310000
b0 "
0.
1$
#320000
b1 "
b101 "
b1101 "
1+
1/
10
0$
#325000
b101 "
00
1$
#330000
b111 "
b110 "
b10 "
b1010 "
0+
1.
0/
10
0$
#335000
b1110 "
b110 "
1/
00
1$
#340000
b111 "
1+
0$
#345000
b1111 "
b1110 "
0+
10
1$
#350000
b1010 "
b10 "
b11 "
1+
0/
00
0$
#355000
b1 "
0.
1$
#360000
b101 "
b111 "
1.
1/
0$
#365000
b1111 "
b1110 "
0+
10
1$
#370000
b1100 "
b100 "
b101 "
1+
0.
00
0$
#375000
b111 "
b110 "
0+
1.
1$
#380000
b10 "
0/
0$
#385000
b1010 "
10
1$
#390000
b1000 "
b1001 "
b1 "
1+
0.
00
0$
#400000
b11 "
b10 "
0+
1.
1$
#405000
b110 "
b100 "
b101 "
1+
0.
1/
0$
#410000
b1101 "
10
1$
#420000
b1111 "
1.
0$
#425000
b1011 "
b11 "
b1 "
0.
0/
00
1$
#430000
b0 "
b1000 "
b1010 "
0+
1.
10
0$
#435000
b1110 "
b1111 "
b111 "
b101 "
1+
0.
1/
00
1$
#440000
b100 "
0+
0$
#445000
b0 "
b1000 "
b1010 "
1.
0/
10
1$
#450000
b10 "
00
0$
#460000
b11 "
b111 "
b101 "
b1101 "
1+
0.
1/
10
1$
#465000
b1001 "
b1011 "
1.
0/
0$
#470000
b1010 "
b1000 "
0+
0.
1$
13
11
1,
1#
#475000
b1100 "
b1101 "
1+
1/
0$
03
01
0,
0#
#480000
b101 "
b111 "
b110 "
0+
1.
00
1$
#485000
b1110 "
b1100 "
b1101 "
1+
0.
10
0$
#490000
b1111 "
b1110 "
0+
1.
1$
#500000
b110 "
00
0$
#505000
b100 "
0.
1$
#510000
b0 "
b10 "
1.
0/
0$
#515000
b1010 "
b1000 "
0.
10
1$
13
11
1,
1#
#525000
b1001 "
1+
0$
#530000
b1 "
b11 "
b10 "
0+
1.
00
1$
03
01
0,
0#
#535000
b1010 "
b1011 "
1+
10
0$
#540000
b11 "
b10 "
0+
00
1$
#545000
b110 "
b1110 "
b1111 "
1+
1/
10
0$
#550000
b1101 "
b1001 "
b1 "
0.
0/
00
1$
#555000
b11 "
b1011 "
1.
10
0$
#560000
b1111 "
1/
1$
#565000
b1110 "
b110 "
0+
00
0$
#570000
b100 "
b101 "
1+
0.
1$
#575000
b111 "
b110 "
0+
1.
0$
#580000
b10 "
b0 "
b1 "
1+
0.
0/
1$
#585000
b101 "
b111 "
1.
1/
0$
#590000
b110 "
b100 "
0+
0.
1$
#595000
b1100 "
b1101 "
1+
10
0$
#600000
b1111 "
1.
1$
#605000
b1110 "
0+
0$
#610000
b1111 "
1+
1$
#615000
b111 "
b101 "
b100 "
0+
0.
00
0$
#620000
b0 "
0/
1$
#625000
b1 "
1+
0$
#630000
b1001 "
b1011 "
1.
10
1$
#635000
b1010 "
b1000 "
0+
0.
0$
13
11
1,
1#
#640000
b0 "
b10 "
1.
00
1$
03
01
0,
0#
#645000
b1010 "
10
0$
#655000
b1000 "
0.
1$
13
11
1,
1#
#660000
b1010 "
1.
0$
03
01
0,
0#
#665000
b1110 "
b1111 "
b111 "
1+
1/
00
1$
#670000
b11 "
0/
0$
#675000
b10 "
b1010 "
b1110 "
0+
1/
10
1$
#680000
b1100 "
b1101 "
b101 "
1+
0.
00
0$
#685000
b111 "
1.
1$
#690000
b101 "
0.
0$
#695000
b1 "
b0 "
b1000 "
0+
0/
10
1$
13
11
1,
1#
#700000
b1001 "
1+
0$
#705000
b1011 "
b1010 "
0+
1.
1$
03
01
0,
0#
#710000
b1110 "
b110 "
b100 "
0.
1/
00
0$
#715000
b0 "
b1000 "
0/
10
1$
13
11
1,
1#
#720000
b1001 "
b1101 "
b101 "
1+
1/
00
0$
03
01
0,
0#
#725000
b111 "
b11 "
b1011 "
1.
0/
10
1$
#730000
b1010 "
b1000 "
b1100 "
b100 "
0+
0.
1/
00
0$
#735000
b101 "
1+
1$
#740000
b100 "
0+
0$
#745000
b110 "
b10 "
b11 "
1+
1.
0/
1$
#750000
b1 "
b101 "
0.
1/
0$
#755000
b111 "
b11 "
1.
0/
1$
#760000
b10 "
0+
0$
#770000
b0 "
b1 "
1+
0.
1$
#775000
b0 "
0+
0$
#780000
b1000 "
b1100 "
b1110 "
1.
1/
10
1$
#785000
b110 "
b10 "
b0 "
0.
0/
00
0$
#795000
b1000 "
b1100 "
b1110 "
1.
1/
10
1$
#800000
b1010 "
0/
0$
#805000
b10 "
00
1$
#810000
b11 "
b1011 "
1+
10
0$
#815000
b1111 "
b1110 "
0+
1/
1$
#820000
b1100 "
b1101 "
1+
0.
0$
#830000
b101 "
b100 "
0+
00
1$
#835000
b0 "
b1 "
1+
0/
0$
#840000
b1001 "
b1101 "
b1100 "
0+
1/
10
1$
#845000
b1110 "
b110 "
b10 "
b11 "
1+
1.
0/
00
0$
#850000
b1 "
0.
1$
#855000
b11 "
1.
0$
#860000
b111 "
b110 "
0+
1/
1$
#865000
b10 "
0/
0$
#870000
b0 "
b100 "
0.
1/
1$
#875000
b101 "
b1 "
1+
0/
0$
#880000
b0 "
b100 "
0+
1/
1$
#885000
b101 "
1+
0$
#890000
b111 "
b110 "
0+
1.
1$
#895000
b10 "
b11 "
1+
0/
0$
#900000
b1011 "
10
1$
#905000
b1001 "
b1101 "
b101 "
0.
1/
00
0$
#910000
b111 "
b1111 "
1.
10
1$
#915000
b1110 "
b1100 "
b100 "
0+
0.
00
0$
#920000
b0 "
b1 "
1+
0/
1$
#925000
b0 "
0+
0$
#930000
b1000 "
b1100 "
1/
10
1$
#935000
b100 "
b0 "
0/
00
0$
#940000
b1 "
b101 "
1+
1/
1$
#945000
b111 "
b1111 "
b1110 "
0+
1.
10
0$
#950000
b1010 "
b1000 "
b0 "
0.
0/
00
1$
#960000
b1 "
b1001 "
1+
10
0$
13
11
1,
1#
#965000
b1000 "
0+
1$
#970000
b1100 "
1/
0$
03
01
0,
0#
#975000
b1110 "
b110 "
b111 "
b11 "
1+
1.
0/
00
1$
#980000
b1011 "
b1010 "
0+
10
0$
#985000
b1000 "
b0 "
0.
00
1$
#990000
b100 "
b101 "
b111 "
b1111 "
1+
1.
1/
10
0$
#995000
b1110 "
0+
1$
