Código_Maq_Moore/mooreReconfiguravel/simulation/qsim/mooreReconfiguravel.msim.vcd
$comment
	File created using the following command:
		vcd file mooreReconfiguravel.msim.vcd -direction
$end
$date
	Thu Jun 04 23:25:26 2020
$end
$version
	ModelSim Version 10.3d
$end
$timescale
	1ps
$end

$scope module mooreReconfiguravel_vlg_vec_tst $end
$var reg 1 ! Clk $end
$var reg 3 " max [2:0] $end
$var wire 1 # outMoore [2] $end
$var wire 1 $ outMoore [1] $end
$var wire 1 % outMoore [0] $end
$var wire 1 & sampler $end

$scope module i1 $end
$var wire 1 ' gnd $end
$var wire 1 ( vcc $end
$var wire 1 ) unknown $end
$var tri1 1 * devclrn $end
$var tri1 1 + devpor $end
$var tri1 1 , devoe $end
$var wire 1 - outMoore[0]~output_o $end
$var wire 1 . outMoore[1]~output_o $end
$var wire 1 / outMoore[2]~output_o $end
$var wire 1 0 Clk~input_o $end
$var wire 1 1 max[0]~input_o $end
$var wire 1 2 max[1]~input_o $end
$var wire 1 3 max[2]~input_o $end
$var wire 1 4 Selector1~0_combout $end
$var wire 1 5 PresentState.b~q $end
$var wire 1 6 Selector2~0_combout $end
$var wire 1 7 PresentState.c~q $end
$var wire 1 8 Selector0~0_combout $end
$var wire 1 9 PresentState.a~q $end
$upscope $end
$upscope $end
$enddefinitions $end
#0
$dumpvars
1!
b101 "
1%
0$
0#
x&
0'
1(
x)
1*
1+
1,
1-
0.
0/
10
11
02
13
14
05
06
07
18
09
$end
#5000
0!
b1 "
b11 "
b10 "
01
12
03
0&
00
#10000
1!
b110 "
13
1&
10
19
15
1.
0-
1$
0%
04
16
#15000
b100 "
b101 "
b1 "
11
02
03
0&
#20000
0!
b11 "
b10 "
01
12
1&
00
06
14
#25000
1!
b0 "
b1 "
11
02
0&
10
16
04
#35000
b101 "
0!
b111 "
b110 "
01
12
13
1&
00
#40000
1!
b100 "
02
0&
10
17
05
0.
1/
0$
1#
#45000
b0 "
03
1&
08
06
#50000
0!
b100 "
13
0&
00
18
16
#55000
b101 "
b111 "
b11 "
11
12
03
1&
08
06
#60000
b10 "
b0 "
b100 "
01
02
13
0&
18
16
#65000
b101 "
b111 "
11
12
1&
08
06
#70000
b110 "
b100 "
01
02
0&
18
16
#75000
b0 "
03
1&
08
06
#80000
1!
b1 "
b11 "
11
12
0&
10
09
07
0/
1-
0#
1%
18
14
#85000
b111 "
0!
b110 "
b100 "
01
02
13
1&
00
#90000
1!
0&
10
19
15
1.
0-
1$
0%
04
16
#95000
b0 "
b1 "
11
03
1&
#100000
0!
0&
00
#105000
b11 "
b10 "
1!
01
12
1&
10
06
14
17
05
0.
1/
0$
1#
04
08
#110000
b0 "
b1 "
0!
11
02
0&
00
#115000
b11 "
b10 "
1!
01
12
1&
10
09
07
0/
1-
0#
1%
18
14
#120000
b110 "
b100 "
0!
02
13
0&
00
#125000
b110 "
12
1&
#130000
b10 "
1!
b0 "
02
03
0&
10
19
15
1.
0-
1$
0%
04
16
#140000
b1 "
b11 "
11
12
1&
#145000
b111 "
b110 "
b100 "
01
02
13
0&
#150000
0!
b0 "
03
1&
00
#155000
1!
0&
10
17
05
0.
1/
0$
1#
06
08
#160000
b10 "
b110 "
12
13
1&
#165000
b111 "
b101 "
b1 "
11
02
03
0&
#170000
b0 "
01
1&
#175000
0!
b10 "
12
0&
00
#180000
1!
1&
10
09
07
0/
1-
0#
1%
18
14
#185000
b110 "
b111 "
0!
11
13
0&
00
#190000
b101 "
1!
02
1&
10
19
15
1.
0-
1$
0%
04
16
#195000
b1 "
b11 "
0!
12
03
0&
00
#200000
b1 "
1!
02
1&
10
17
05
0.
1/
0$
1#
06
08
#205000
b0 "
b100 "
01
13
0&
18
16
#210000
0!
b101 "
b1 "
11
03
1&
00
08
06
#215000
1!
b0 "
01
0&
10
09
07
0/
1-
0#
1%
18
14
#220000
b10 "
0!
b11 "
11
12
1&
00
#225000
b1 "
1!
b0 "
01
02
0&
10
19
15
1.
0-
1$
0%
04
16
#230000
b100 "
13
1&
#235000
b101 "
11
0&
#240000
b111 "
0!
b110 "
01
12
1&
00
#245000
b100 "
02
0&
#250000
1!
b101 "
b111 "
11
12
1&
10
17
05
0.
1/
0$
1#
06
08
#255000
b11 "
0!
b1 "
02
03
0&
00
#260000
b101 "
b111 "
12
13
1&
#265000
b11 "
b1 "
02
03
0&
#270000
1!
b101 "
13
1&
10
09
07
0/
1-
0#
1%
18
14
#275000
b100 "
b110 "
b10 "
01
12
03
0&
#280000
b0 "
02
1&
#285000
b1 "
b11 "
11
12
0&
#290000
0!
1&
00
#295000
1!
0&
10
19
15
1.
0-
1$
0%
04
16
#300000
b1 "
0!
02
1&
00
#305000
b101 "
b100 "
1!
01
13
0&
10
17
05
0.
1/
0$
1#
#310000
b110 "
b111 "
0!
11
12
1&
00
08
06
#315000
b101 "
1!
02
0&
10
09
07
0/
1-
0#
1%
18
14
#320000
b1 "
0!
03
1&
00
08
04
#325000
b0 "
b10 "
b110 "
1!
01
12
13
0&
10
18
14
#330000
b100 "
0!
02
1&
00
#335000
b0 "
b10 "
12
03
0&
#345000
1!
b110 "
b100 "
02
13
1&
10
19
15
1.
0-
1$
0%
04
16
#350000
b101 "
b111 "
11
12
0&
#355000
b11 "
b10 "
01
03
1&
06
14
#360000
0!
b0 "
02
0&
00
16
04
#365000
b1 "
1!
11
1&
10
17
05
0.
1/
0$
1#
06
08
#370000
0!
0&
00
#375000
b0 "
1!
01
1&
10
09
07
0/
1-
0#
1%
18
14
#380000
b100 "
0!
13
0&
00
#385000
b101 "
b1 "
1!
11
03
1&
10
08
04
19
15
1.
0-
1$
0%
18
16
#390000
b0 "
01
0&
#395000
b10 "
b110 "
0!
b111 "
11
12
13
1&
00
#400000
b11 "
1!
03
0&
10
17
05
0.
1/
0$
1#
06
08
#405000
0!
1&
00
#410000
b1 "
b0 "
b100 "
1!
01
02
13
0&
10
18
16
09
07
0/
1-
0#
1%
14
06
#415000
b101 "
0!
11
1&
00
#420000
b1 "
b0 "
1!
01
03
0&
10
19
15
1.
0-
1$
0%
04
16
#425000
b1 "
0!
11
1&
00
#430000
b11 "
b111 "
1!
12
13
0&
10
17
05
0.
1/
0$
1#
06
08
#440000
b101 "
02
1&
#445000
b1 "
0!
b11 "
12
03
0&
00
#455000
b10 "
b0 "
01
02
1&
#460000
b1 "
11
0&
#465000
b11 "
12
1&
#470000
b1 "
02
0&
#475000
b101 "
13
1&
#480000
1!
b100 "
b110 "
01
12
0&
10
09
07
0/
1-
0#
1%
18
14
#485000
b10 "
b0 "
02
03
1&
#490000
b1 "
b101 "
11
13
0&
#495000
b111 "
b11 "
12
03
1&
#500000
b111 "
13
0&
#505000
b101 "
b1 "
02
03
1&
08
04
#510000
0!
b0 "
b10 "
b110 "
01
12
13
0&
00
18
14
#515000
1!
b111 "
11
1&
10
19
15
1.
0-
1$
0%
04
16
#520000
b101 "
b1 "
0!
02
03
0&
00
#525000
b0 "
b10 "
b110 "
1!
01
12
13
1&
10
17
05
0.
1/
0$
1#
06
08
#530000
b10 "
0!
03
0&
00
#535000
b0 "
b100 "
02
13
1&
18
16
#540000
b101 "
1!
b111 "
11
12
0&
10
08
06
#545000
b11 "
b1 "
02
03
1&
#550000
b0 "
0!
b10 "
01
12
0&
00
#555000
b110 "
b100 "
02
13
1&
18
16
#560000
b101 "
b111 "
11
12
0&
08
06
#565000
b110 "
01
1&
#570000
1!
b10 "
b0 "
02
03
0&
10
09
07
0/
1-
0#
1%
18
14
#575000
b1 "
b11 "
11
12
1&
#580000
b111 "
13
0&
#585000
b101 "
02
1&
#590000
b100 "
b0 "
01
03
0&
#595000
b10 "
b11 "
11
12
1&
#600000
0!
b1 "
02
0&
00
08
04
#610000
b11 "
12
1&
18
14
#615000
1!
0&
10
19
15
1.
0-
1$
0%
04
16
#620000
b10 "
b0 "
01
02
1&
#625000
b10 "
12
0&
06
14
#630000
b110 "
13
1&
16
04
#635000
0!
b100 "
02
0&
00
#640000
b0 "
b10 "
12
03
1&
06
14
#645000
b11 "
1!
b111 "
b101 "
11
02
13
0&
10
16
04
#650000
b100 "
01
1&
#655000
b110 "
b111 "
11
12
0&
#660000
0!
1&
00
#665000
b110 "
1!
01
0&
10
17
05
0.
1/
0$
1#
06
08
#670000
b10 "
b0 "
02
03
1&
#675000
b1 "
b101 "
b111 "
11
12
13
0&
#680000
0!
b101 "
02
1&
00
#685000
b1 "
03
0&
#690000
b0 "
1!
01
1&
10
09
07
0/
1-
0#
1%
18
14
#695000
b100 "
0!
13
0&
00
#700000
b101 "
b1 "
11
03
1&
08
04
#705000
b11 "
b10 "
b110 "
01
12
13
0&
18
14
#710000
1!
b100 "
02
1&
10
19
15
1.
0-
1$
0%
04
16
#715000
b101 "
b111 "
11
12
0&
#720000
b11 "
b10 "
b0 "
01
02
03
1&
#725000
0!
b100 "
b110 "
12
13
0&
00
#735000
b100 "
02
1&
#740000
b0 "
03
0&
#745000
b1 "
1!
b101 "
11
13
1&
10
17
05
0.
1/
0$
1#
06
08
#750000
b100 "
01
0&
18
16
#755000
b0 "
b1 "
11
03
1&
08
06
#760000
0!
b0 "
01
0&
00
#765000
1!
1&
10
09
07
0/
1-
0#
1%
18
14
#770000
b10 "
b11 "
11
12
0&
#775000
b111 "
13
1&
#780000
b101 "
b1 "
02
03
0&
08
04
#785000
0!
b11 "
12
1&
00
18
14
#790000
b111 "
13
0&
#795000
b101 "
02
1&
#800000
1!
0&
10
19
15
1.
0-
1$
0%
04
16
#805000
b100 "
01
1&
#810000
b101 "
11
0&
#815000
0!
1&
00
#820000
b111 "
b110 "
1!
01
12
0&
10
17
05
0.
1/
0$
1#
06
08
#825000
b10 "
03
1&
#830000
0!
0&
00
#835000
b0 "
b100 "
02
13
1&
18
16
#840000
b101 "
1!
b111 "
11
12
0&
10
08
06
#845000
b11 "
0!
03
1&
00
#855000
1!
0&
10
09
07
0/
1-
0#
1%
18
14
#860000
b1 "
b101 "
02
13
1&
#865000
b100 "
0!
01
0&
00
#870000
b0 "
b1 "
11
03
1&
08
04
#875000
1!
b101 "
13
0&
10
18
14
#880000
b111 "
b110 "
0!
01
12
1&
00
#890000
b10 "
03
0&
#895000
b11 "
11
1&
#900000
b111 "
13
0&
#905000
1!
b110 "
b10 "
01
03
1&
10
19
15
1.
0-
1$
0%
#910000
b0 "
b1 "
b101 "
11
02
13
0&
16
04
#915000
b100 "
01
1&
#920000
b110 "
b111 "
11
12
0&
#925000
b11 "
b1 "
02
03
1&
#930000
b101 "
b111 "
12
13
0&
#935000
b110 "
b10 "
01
03
1&
06
14
#940000
0!
b0 "
b1 "
b101 "
11
02
13
0&
00
16
04
#945000
1!
b111 "
b11 "
12
03
1&
10
17
05
0.
1/
0$
1#
06
08
#950000
0!
b111 "
13
0&
00
#955000
b101 "
1!
02
1&
10
09
07
0/
1-
0#
1%
18
14
#960000
b1 "
0!
03
0&
00
08
04
#965000
b0 "
01
1&
18
14
#970000
b10 "
1!
12
0&
10
19
15
1.
0-
1$
0%
#975000
b11 "
0!
11
1&
00
16
04
#980000
b111 "
13
0&
#985000
b110 "
1!
b10 "
01
03
1&
10
06
14
17
05
0.
1/
0$
1#
04
08
#990000
b11 "
0!
11
0&
00
#995000
b1 "
b0 "
01
02
1&
