Aulas_Recupera2/simulation/qsim/recuperacao.msim.vcd
$comment
	File created using the following command:
		vcd file recuperacao.msim.vcd -direction
$end
$date
	Tue Jun 16 22:34:27 2020
$end
$version
	ModelSim Version 10.3d
$end
$timescale
	1ps
$end

$scope module recuperacao_vlg_vec_tst $end
$var reg 1 ! clk $end
$var reg 3 " sequencia [2:0] $end
$var reg 2 # sequencia1 [1:0] $end
$var wire 1 $ DETETA $end
$var wire 1 % sampler $end

$scope module i1 $end
$var wire 1 & gnd $end
$var wire 1 ' vcc $end
$var wire 1 ( unknown $end
$var tri1 1 ) devclrn $end
$var tri1 1 * devpor $end
$var tri1 1 + devoe $end
$var wire 1 , DETETA~output_o $end
$var wire 1 - sequencia[0]~input_o $end
$var wire 1 . sequencia[2]~input_o $end
$var wire 1 / sequencia[1]~input_o $end
$var wire 1 0 sequencia1[0]~input_o $end
$var wire 1 1 sequencia1[1]~input_o $end
$var wire 1 2 clk~input_o $end
$var wire 1 3 Selector1~0_combout $end
$var wire 1 4 process_1~0_combout $end
$var wire 1 5 present_state.tres~q $end
$var wire 1 6 Selector0~1_combout $end
$var wire 1 7 Selector0~0_combout $end
$var wire 1 8 present_state.um~q $end
$var wire 1 9 Selector1~1_combout $end
$var wire 1 : present_state.dois~q $end
$var wire 1 ; Selector4~0_combout $end
$var wire 1 < Selector4~1_combout $end
$upscope $end
$upscope $end
$enddefinitions $end
#0
$dumpvars
0!
b111 "
b0 #
0$
x%
0&
1'
x(
1)
1*
1+
0,
1-
1.
1/
00
01
02
03
14
05
06
07
08
09
0:
0;
0<
$end
#5000
b11 "
b1 "
0/
0.
0%
16
13
1<
19
17
1,
1$
#10000
1!
b0 "
b10 #
b11 #
b10 "
10
11
0-
1/
1%
12
06
03
0<
09
07
0,
0$
1:
18
19
17
#15000
b110 "
b1 #
01
1.
0%
#20000
0!
b100 "
b0 "
0/
0.
1%
02
#25000
b11 #
11
0%
#30000
b1 "
b11 "
b111 "
1-
1/
1.
1%
#35000
b10 #
1!
b110 "
b100 "
0-
0/
00
0%
12
#40000
b0 #
b1 #
b101 "
b111 "
1-
1/
10
01
1%
#45000
0!
b11 #
b10 #
b110 "
0-
00
11
0%
02
#50000
b100 "
1!
b0 #
01
0/
1%
12
16
13
#55000
b1 #
b11 #
10
11
0%
06
03
#60000
b110 "
b1 #
01
1/
1%
#65000
b10 "
0!
0.
0%
02
#70000
b11 "
b0 #
b1 "
b10 #
00
11
1-
0/
1%
#75000
1!
b11 #
10
0%
12
#80000
b0 "
b10 "
b1 #
0!
b0 #
00
01
0-
1/
1%
02
16
04
1;
09
1<
1,
1$
#85000
b110 "
b100 "
b10 #
1!
b11 #
10
11
0/
1.
0%
12
06
14
0;
19
0<
0,
0$
0:
15
09
07
#90000
b101 "
b1 "
b1 #
b0 #
00
01
1-
0.
1%
16
13
#95000
b11 "
b10 #
b11 #
10
11
1/
0%
06
03
#100000
0!
b111 "
b101 "
b10 #
00
0/
1.
1%
02
#105000
b100 "
b0 #
1!
01
0-
0%
12
16
13
1<
17
1,
1$
08
05
0<
07
0,
0$
#110000
b0 "
b10 "
0!
1/
0.
1%
02
04
03
#115000
b1 #
b110 "
1!
1.
10
0%
12
06
14
#120000
b111 "
b11 "
0!
1-
0.
1%
02
#125000
b11 #
b1 "
b10 #
b0 "
1!
0-
0/
00
11
0%
12
#130000
b10 "
1/
1%
#135000
b0 #
b1 #
b11 "
0!
b1 "
1-
0/
10
01
0%
02
#140000
b101 "
b11 #
b10 #
00
11
1.
1%
#145000
b111 "
b11 "
1/
0.
0%
#150000
b10 "
b11 #
10
0-
1%
#155000
1!
b1 #
b0 "
0/
01
0%
12
#160000
b100 "
b101 "
b0 #
0!
b10 #
00
11
1-
1.
1%
02
#165000
b100 "
b11 #
10
0-
0%
#170000
b110 "
b10 "
b1 #
01
1/
0.
1%
#175000
b0 #
b0 "
b100 "
0/
1.
00
0%
16
13
#180000
1!
b10 #
b11 #
b110 "
1/
10
11
1%
12
06
03
#185000
b10 "
b10 #
00
0.
0%
#190000
b11 "
0!
b1 "
b11 #
10
1-
0/
1%
02
#195000
b101 "
b100 "
1!
0-
1.
0%
12
#200000
b110 "
b10 #
b10 "
0!
00
1/
0.
1%
02
#205000
b11 "
b111 "
1-
1.
0%
#210000
b0 #
b101 "
b1 #
1!
b100 "
b0 "
0-
0/
0.
10
01
1%
12
#215000
b11 #
b10 "
0!
1/
11
0%
02
#220000
b10 #
00
1%
#225000
b11 "
b111 "
1-
1.
0%
#230000
b0 #
1!
b11 "
0.
01
1%
12
#235000
b1 #
0!
10
0%
02
#240000
b1 "
b0 #
1!
00
0/
1%
12
16
13
1<
19
17
1,
1$
#245000
b10 #
b11 #
0!
10
11
0%
02
06
03
0<
09
07
0,
0$
#250000
b0 "
b10 "
0-
1/
1%
#255000
1!
b0 "
0/
0%
12
#260000
b10 #
b1 "
0!
1-
00
1%
02
#265000
b0 #
b11 "
1/
01
0%
#270000
b1 #
b10 "
b0 "
0-
0/
10
1%
#275000
b11 #
b10 #
b1 "
b11 "
1-
1/
00
11
0%
#280000
b111 "
1!
b0 #
b1 #
b110 "
b100 "
10
01
0-
0/
1.
1%
12
#285000
0!
b11 #
b10 #
b110 "
1/
00
11
0%
02
#290000
b10 "
1!
b0 #
b1 #
10
01
0.
1%
12
#295000
b11 "
b1 "
0!
b11 #
11
1-
0/
0%
02
#300000
b101 "
b10 #
1!
00
1.
1%
12
#305000
b0 #
b1 "
0!
0.
01
0%
02
16
13
1<
19
17
1,
1$
#310000
b0 "
b10 "
b10 #
11
0-
1/
1%
06
03
0<
09
07
0,
0$
#315000
b11 #
1!
b11 "
b1 "
b1 #
1-
0/
10
01
0%
12
#320000
0!
b0 "
b10 "
b11 #
11
0-
1/
1%
02
#325000
b110 "
b10 #
b111 "
00
1-
1.
0%
#330000
b11 #
10
1%
#335000
1!
b101 "
b1 #
b1 "
b0 "
b0 #
00
01
0-
0/
0.
0%
12
13
#340000
0!
b10 "
b110 "
b111 "
1-
1/
1.
1%
02
03
#345000
b10 #
b11 #
b101 "
b100 "
0-
0/
10
11
0%
#350000
1!
b110 "
1/
1%
12
#355000
b10 "
b1 #
b0 "
01
0/
0.
0%
#360000
b0 #
b1 "
b101 "
1-
1.
00
1%
13
#365000
0!
b10 #
b11 #
b100 "
b0 "
0-
0.
10
11
0%
02
03
#370000
1!
b1 #
b0 #
b1 "
1-
00
01
1%
12
16
13
1<
19
17
1,
1$
#375000
b11 "
0!
b10 #
b10 "
11
0-
1/
0%
02
06
03
0<
09
07
0,
0$
#380000
b11 #
b1 #
b11 "
1-
10
01
1%
#395000
b111 "
b101 "
1!
b11 #
b100 "
11
0-
0/
1.
0%
12
#400000
b0 "
b10 "
0!
1/
0.
1%
02
#405000
b10 #
b0 #
b110 "
1.
00
01
0%
#410000
b111 "
b11 "
1-
0.
1%
#415000
b1 "
1!
b10 #
b0 "
b100 "
11
0-
0/
1.
0%
12
#420000
b110 "
0!
b0 #
01
1/
1%
02
#425000
b1 #
b111 "
b11 "
b1 "
1!
1-
0/
0.
10
0%
12
#430000
b11 #
b10 #
b101 "
0!
1.
00
11
1%
02
#435000
b11 #
b1 "
1!
0.
10
0%
12
#440000
b11 "
b1 #
b0 #
b111 "
0!
00
01
1/
1.
1%
02
#445000
b110 "
b100 "
b10 #
11
0-
0/
0%
#450000
b11 #
b0 "
1!
b10 "
b1 #
1/
0.
10
01
1%
12
#455000
b11 "
b0 #
b111 "
0!
b10 #
00
11
1-
1.
0%
02
#460000
b11 #
b11 "
1!
b1 #
0.
10
01
1%
12
#465000
b0 #
b111 "
b10 #
1.
00
11
0%
#470000
b101 "
b1 "
0/
0.
1%
#475000
0!
b11 #
b101 "
1.
10
0%
02
#480000
b1 #
01
1%
#485000
1!
b1 "
b11 #
11
0.
0%
12
#490000
b11 "
0!
b111 "
b1 #
01
1/
1.
1%
02
#495000
b0 #
00
0%
#500000
b110 "
1!
b10 "
b10 #
11
0-
0.
1%
12
#505000
b11 "
0!
1-
0%
02
#510000
b11 #
b111 "
b1 #
1!
1.
10
01
1%
12
#515000
b0 #
00
0%
#520000
b10 #
0!
11
1%
02
#525000
b110 "
b10 "
b11 #
b1 #
1!
10
01
0-
0.
0%
12
#530000
b0 #
b10 #
00
11
1%
#535000
b11 "
b111 "
0!
b11 #
b1 #
10
01
1-
1.
0%
02
#540000
b11 "
b0 #
b10 #
00
11
0.
1%
#545000
b111 "
b11 #
b1 #
10
01
1.
0%
#550000
b110 "
b0 #
00
0-
1%
#555000
b10 #
b111 "
1-
11
0%
#560000
b11 "
b0 #
01
0.
1%
#565000
b1 "
0/
0%
16
13
1<
19
17
1,
1$
#570000
1!
b1 #
10
1%
12
06
03
0<
09
07
0,
0$
1:
18
19
17
#575000
b0 "
b100 "
b11 #
b10 #
00
11
0-
1.
0%
#580000
b110 "
b10 "
b0 #
b1 #
10
01
1/
0.
1%
#585000
0!
b11 #
11
0%
02
#590000
b11 "
b111 "
1-
1.
1%
#595000
b11 "
0.
0%
#600000
b1 "
0/
1%
#605000
1!
b0 "
b100 "
0-
1.
0%
12
#610000
b10 #
b110 "
b111 "
1-
1/
00
1%
#615000
b0 #
0!
b11 "
b10 "
0-
0.
01
0%
02
16
04
1;
09
1<
1,
1$
#620000
b0 "
1!
0/
1%
12
06
14
13
0;
0<
19
0,
0$
0:
15
09
07
#625000
b10 #
11
0%
03
#630000
b11 #
b100 "
b110 "
0!
1/
1.
10
1%
02
#635000
b1 #
01
0%
#640000
b111 "
b0 #
b101 "
1!
00
1-
0/
1%
12
13
08
05
#645000
b1 "
b0 "
b1 #
b10 "
0!
10
0-
1/
0.
0%
02
03
#650000
b11 #
b110 "
b111 "
1-
1.
11
1%
#655000
b101 "
1!
b100 "
0-
0/
0%
12
#660000
b10 #
0!
00
1%
02
#665000
b0 #
b0 "
b10 "
b11 "
1-
1/
0.
01
0%
#670000
1!
b10 #
b111 "
b101 "
b100 "
0-
0/
1.
11
1%
12
#675000
b11 #
b0 "
b1 "
1-
0.
10
0%
#680000
0!
b11 "
b10 #
b10 "
00
0-
1/
1%
02
#685000
b0 #
b110 "
1!
b100 "
b1 #
b101 "
1-
0/
1.
10
01
0%
12
#690000
b11 #
b1 "
0.
11
1%
#695000
0!
b0 "
b100 "
0-
1.
0%
02
#700000
b10 #
1!
b101 "
1-
00
1%
12
#705000
b111 "
b0 #
b11 "
01
1/
0.
0%
#710000
b1 #
0!
b111 "
1.
10
1%
02
#715000
b110 "
b100 "
1!
0-
0/
0%
12
#720000
b0 #
b101 "
b111 "
0!
1-
1/
00
1%
02
#725000
1!
0%
12
#730000
b10 #
b11 "
b10 "
b0 "
0!
0-
0/
0.
11
1%
02
#735000
b11 #
b1 #
b100 "
1!
1.
10
01
0%
12
#740000
b110 "
1/
1%
#745000
b11 #
0!
11
0%
02
#750000
b10 #
b10 "
b0 #
1!
0.
00
01
1%
12
16
04
#755000
b0 "
b100 "
0/
1.
0%
14
13
#760000
b1 #
0!
b0 "
0.
10
1%
02
06
03
#765000
b1 "
b11 #
11
1-
0%
#770000
b11 "
1!
b1 #
01
1/
1%
12
#775000
b1 "
0!
0/
0%
02
#780000
b0 #
b0 "
0-
00
1%
13
#785000
b100 "
b10 #
b110 "
1!
b11 #
10
11
1/
1.
0%
12
03
#790000
b111 "
b101 "
1-
0/
1%
#795000
b1 #
0!
b0 #
b111 "
1/
00
01
0%
02
#800000
b110 "
1!
b1 #
b100 "
10
0-
0/
1%
12
#805000
b11 #
b101 "
1-
11
0%
#810000
b1 "
0!
b1 #
01
0.
1%
02
#815000
b0 #
b0 "
1!
b10 #
0-
00
11
0%
12
#820000
b100 "
b11 #
b101 "
0!
10
1-
1.
1%
02
#825000
b10 #
b100 "
0-
00
0%
#830000
b0 "
1!
b1 "
1-
0.
1%
12
#840000
b0 #
b1 #
b101 "
b100 "
0-
1.
10
01
0%
#845000
0!
b0 #
00
1%
02
16
13
#850000
b110 "
b10 #
b10 "
1!
11
1/
0.
0%
12
06
03
#855000
b11 "
b11 #
b1 "
b1 #
b101 "
0!
10
01
1-
0/
1.
1%
02
#860000
b0 #
b111 "
b10 #
b11 "
1/
0.
00
11
0%
#865000
b10 "
b0 #
b110 "
01
0-
1.
1%
#870000
b10 "
0.
0%
16
04
#875000
b1 #
b0 "
b1 "
b11 #
b101 "
1-
0/
1.
10
11
1%
06
14
17
07
#880000
1!
b10 #
b111 "
b0 #
b11 "
1/
0.
00
01
0%
12
#885000
b10 "
0!
b1 #
b11 #
10
11
0-
1%
02
#890000
b0 "
1!
0/
0%
12
#895000
b100 "
b101 "
b111 "
0!
1-
1/
1.
1%
02
#900000
b11 "
b1 "
1!
0/
0.
0%
12
#905000
b101 "
1.
1%
#910000
b100 "
b110 "
0!
0-
1/
0%
02
#915000
b10 #
b0 #
b10 "
b11 "
b1 "
1-
0/
0.
00
01
1%
16
13
1<
19
17
1,
1$
#925000
b1 #
b101 "
1.
10
0%
06
03
0<
09
0,
0$
07
#930000
b11 #
b100 "
b0 "
0-
0.
11
1%
#935000
b10 "
b1 #
b11 "
01
1-
1/
0%
#940000
b111 "
b11 #
b110 "
11
0-
1.
1%
#945000
1!
b10 #
b10 "
b0 #
0.
00
01
0%
12
16
04
#955000
b11 "
0!
b1 #
b11 #
10
11
1-
1%
02
06
14
17
07
#960000
b1 "
b101 "
1!
b10 #
b0 #
00
01
0/
1.
0%
12
13
#965000
b100 "
b110 "
b1 #
b11 #
10
11
0-
1/
1%
03
#970000
b10 "
0!
b11 "
b1 "
1-
0/
0.
0%
02
#975000
b10 #
b0 #
b0 "
b10 "
0-
1/
00
01
1%
16
04
#980000
b10 #
b0 "
0/
11
0%
06
14
#985000
b11 #
b1 "
b1 #
1-
10
01
1%
#990000
b11 #
11
0%
#995000
b101 "
1!
b111 "
b110 "
0-
1/
1.
1%
12
