Código_concorrente/tramadebits/simulation/qsim/trama.msim.vcd
$comment
	File created using the following command:
		vcd file trama.msim.vcd -direction
$end
$date
	Fri Jun 05 08:03:51 2020
$end
$version
	ModelSim Version 10.3d
$end
$timescale
	1ps
$end

$scope module trama_vlg_vec_tst $end
$var reg 3 ! trama [2:0] $end
$var wire 1 " saida [6] $end
$var wire 1 # saida [5] $end
$var wire 1 $ saida [4] $end
$var wire 1 % saida [3] $end
$var wire 1 & saida [2] $end
$var wire 1 ' saida [1] $end
$var wire 1 ( saida [0] $end
$var wire 1 ) sampler $end

$scope module i1 $end
$var wire 1 * gnd $end
$var wire 1 + vcc $end
$var wire 1 , unknown $end
$var tri1 1 - devclrn $end
$var tri1 1 . devpor $end
$var tri1 1 / devoe $end
$var wire 1 0 saida[0]~output_o $end
$var wire 1 1 saida[1]~output_o $end
$var wire 1 2 saida[2]~output_o $end
$var wire 1 3 saida[3]~output_o $end
$var wire 1 4 saida[4]~output_o $end
$var wire 1 5 saida[5]~output_o $end
$var wire 1 6 saida[6]~output_o $end
$var wire 1 7 trama[1]~input_o $end
$var wire 1 8 trama[0]~input_o $end
$var wire 1 9 trama[2]~input_o $end
$var wire 1 : saida~0_combout $end
$var wire 1 ; saida~1_combout $end
$var wire 1 < saida~2_combout $end
$var wire 1 = saida~3_combout $end
$var wire 1 > saida~4_combout $end
$var wire 1 ? saida~5_combout $end
$upscope $end
$upscope $end
$enddefinitions $end
#0
$dumpvars
b1 !
0(
0'
0&
0%
0$
0#
0"
x)
0*
1+
x,
1-
1.
1/
00
01
02
03
04
05
06
07
18
09
1:
0;
0<
0=
0>
0?
$end
#5000
b0 !
08
0)
0:
10
1(
#10000
b100 !
b101 !
18
19
1)
1:
1>
15
00
1#
0(
#15000
b111 !
b11 !
17
09
0)
0>
1=
13
05
1%
0#
#20000
b1 !
b101 !
07
19
1)
1>
0=
03
15
0%
1#
#25000
b1 !
09
0)
0>
05
0#
#30000
b101 !
19
1)
1>
15
1#
#35000
b1 !
09
0)
0>
05
0#
#40000
b0 !
08
1)
0:
10
1(
#45000
b100 !
19
0)
1:
1<
12
14
00
1&
1$
0(
#50000
b110 !
b111 !
18
17
1)
1?
0<
02
04
16
0&
0$
1"
#55000
b11 !
b1 !
07
09
0)
0?
06
0"
#60000
b101 !
b111 !
17
19
1)
1?
16
1"
#65000
b11 !
09
0)
0?
1=
13
06
1%
0"
#70000
b10 !
b0 !
b100 !
08
07
19
1)
0=
1<
12
14
03
1&
1$
0%
#75000
b110 !
b10 !
17
09
0)
0<
1;
11
02
04
1'
0&
0$
#80000
b11 !
18
1)
1=
0;
01
13
0'
1%
#85000
b1 !
07
0)
0=
03
0%
#90000
b101 !
b100 !
08
19
1)
1<
12
14
1&
1$
#95000
b110 !
b10 !
b11 !
18
17
09
0)
1=
0<
02
04
13
0&
0$
1%
#100000
b1 !
b101 !
b100 !
08
07
19
1)
0=
1<
12
14
03
1&
1$
0%
#105000
b110 !
b10 !
17
09
0)
0<
1;
11
02
04
1'
0&
0$
#110000
b11 !
b1 !
b101 !
18
07
19
1)
1>
0;
01
15
0'
1#
#115000
b100 !
b0 !
08
09
0)
0:
0>
05
10
0#
1(
#120000
b10 !
b110 !
17
19
1)
1:
00
0(
#125000
b10 !
09
0)
1;
11
1'
#135000
b110 !
19
1)
0;
01
0'
#140000
b111 !
b101 !
b1 !
18
07
09
0)
#145000
b0 !
b10 !
b110 !
08
17
19
1)
#150000
b111 !
18
0)
1?
16
1"
#155000
b101 !
b1 !
07
09
1)
0?
06
0"
#160000
b11 !
b111 !
17
19
0)
1?
16
1"
#165000
b110 !
08
1)
0?
06
0"
#170000
b100 !
b0 !
07
09
0)
0:
10
1(
#180000
b1 !
b11 !
b111 !
18
17
19
1)
1:
1?
16
00
1"
0(
#185000
b101 !
b1 !
07
09
0)
0?
06
0"
#190000
b11 !
17
1)
1=
13
1%
#195000
b10 !
b110 !
b100 !
08
07
19
0)
0=
1<
12
14
03
1&
1$
0%
#200000
b110 !
17
1)
0<
02
04
0&
0$
#205000
b100 !
07
0)
1<
12
14
1&
1$
#210000
b101 !
b1 !
18
09
1)
0<
02
04
0&
0$
#215000
b11 !
17
0)
1=
13
1%
#220000
b10 !
b0 !
08
07
1)
0:
0=
03
10
0%
1(
#225000
b100 !
b101 !
b111 !
18
17
19
0)
1:
1?
16
00
1"
0(
#230000
b110 !
08
1)
0?
06
0"
#235000
b100 !
07
0)
1<
12
14
1&
1$
#240000
b101 !
b111 !
18
17
1)
1?
0<
02
04
16
0&
0$
1"
#245000
b110 !
b100 !
08
07
0)
0?
1<
12
14
06
1&
1$
0"
#250000
b0 !
09
1)
0:
0<
02
04
10
0&
0$
1(
#255000
b100 !
19
0)
1:
1<
12
14
00
1&
1$
0(
#260000
b101 !
b111 !
18
17
1)
1?
0<
02
04
16
0&
0$
1"
#265000
b110 !
08
0)
0?
06
0"
#270000
b111 !
18
1)
1?
16
1"
#275000
b110 !
08
0)
0?
06
0"
#280000
b100 !
07
1)
1<
12
14
1&
1$
#285000
b101 !
18
0)
1>
0<
02
04
15
0&
0$
1#
#290000
b1 !
b0 !
08
09
1)
0:
0>
05
10
0#
1(
#295000
b10 !
b110 !
17
19
0)
1:
00
0(
#300000
b100 !
07
1)
1<
12
14
1&
1$
#305000
b101 !
b111 !
18
17
0)
1?
0<
02
04
16
0&
0$
1"
#310000
b11 !
b1 !
07
09
1)
0?
06
0"
#315000
b0 !
08
0)
0:
10
1(
#320000
b10 !
b11 !
18
17
1)
1:
1=
13
00
1%
0(
#325000
b1 !
07
0)
0=
03
0%
#335000
b0 !
08
1)
0:
10
1(
#340000
b1 !
18
0)
1:
00
0(
#345000
b101 !
b100 !
08
19
1)
1<
12
14
1&
1$
#350000
b110 !
b10 !
b11 !
18
17
09
0)
1=
0<
02
04
13
0&
0$
1%
#355000
b10 !
08
1)
0=
1;
11
03
1'
0%
#360000
b11 !
18
0)
1=
0;
01
13
0'
1%
#365000
b1 !
b101 !
07
19
1)
1>
0=
03
15
0%
1#
#370000
b111 !
17
0)
1?
0>
05
16
0#
1"
#375000
b110 !
b100 !
08
07
1)
0?
1<
12
14
06
1&
1$
0"
#380000
b0 !
b1 !
18
09
0)
0<
02
04
0&
0$
#385000
b11 !
b111 !
b110 !
08
17
19
1)
#390000
b10 !
09
0)
1;
11
1'
#395000
b0 !
07
1)
0:
0;
01
10
0'
1(
#400000
b1 !
18
0)
1:
00
0(
#405000
b11 !
17
1)
1=
13
1%
#410000
b111 !
b110 !
b100 !
08
07
19
0)
0=
1<
12
14
03
1&
1$
0%
#415000
b0 !
09
1)
0:
0<
02
04
10
0&
0$
1(
#420000
b1 !
b101 !
18
19
0)
1:
1>
15
00
1#
0(
#425000
b111 !
b11 !
17
09
1)
0>
1=
13
05
1%
0#
#430000
b10 !
b110 !
08
19
0)
0=
03
0%
#435000
b100 !
07
1)
1<
12
14
1&
1$
#440000
b101 !
18
0)
1>
0<
02
04
15
0&
0$
1#
#450000
b111 !
17
1)
1?
0>
05
16
0#
1"
#455000
b11 !
b1 !
07
09
0)
0?
06
0"
#460000
b0 !
b100 !
08
19
1)
1<
12
14
1&
1$
#465000
b110 !
b10 !
17
09
0)
0<
1;
11
02
04
1'
0&
0$
#470000
b11 !
b111 !
18
19
1)
1?
0;
01
16
0'
1"
#475000
b101 !
b100 !
b0 !
08
07
09
0)
0:
0?
06
10
0"
1(
#480000
b1 !
b101 !
18
19
1)
1:
1>
15
00
1#
0(
#485000
b100 !
08
0)
0>
1<
12
14
05
1&
1$
0#
#490000
b0 !
09
1)
0:
0<
02
04
10
0&
0$
1(
#495000
b10 !
b11 !
b111 !
18
17
19
0)
1:
1?
16
00
1"
0(
#500000
b101 !
b1 !
07
09
1)
0?
06
0"
#505000
b0 !
08
0)
0:
10
1(
#510000
b100 !
19
1)
1:
1<
12
14
00
1&
1$
0(
#515000
b110 !
b111 !
18
17
0)
1?
0<
02
04
16
0&
0$
1"
#520000
b101 !
b100 !
08
07
1)
0?
1<
12
14
06
1&
1$
0"
#525000
b101 !
18
0)
1>
0<
02
04
15
0&
0$
1#
#530000
b111 !
17
1)
1?
0>
05
16
0#
1"
#535000
b11 !
b1 !
07
09
0)
0?
06
0"
#540000
b0 !
b100 !
b110 !
08
17
19
1)
#545000
b100 !
07
0)
1<
12
14
1&
1$
#550000
b101 !
b111 !
18
17
1)
1?
0<
02
04
16
0&
0$
1"
#560000
b101 !
07
0)
0?
1>
15
06
1#
0"
#565000
b111 !
17
1)
1?
0>
05
16
0#
1"
#570000
b110 !
b100 !
08
07
0)
0?
1<
12
14
06
1&
1$
0"
#575000
b0 !
b1 !
b11 !
18
17
09
1)
1=
0<
02
04
13
0&
0$
1%
#585000
b10 !
08
0)
0=
1;
11
03
1'
0%
#595000
b110 !
b111 !
18
19
1)
1?
0;
01
16
0'
1"
#605000
b101 !
b1 !
b0 !
08
07
09
0)
0:
0?
06
10
0"
1(
#610000
b10 !
17
1)
1:
1;
11
00
1'
0(
#620000
b11 !
b1 !
18
07
0)
0;
01
0'
#625000
b11 !
17
1)
1=
13
1%
#630000
b111 !
b110 !
b100 !
08
07
19
0)
0=
1<
12
14
03
1&
1$
0%
#635000
b110 !
17
1)
0<
02
04
0&
0$
#640000
b10 !
b11 !
18
09
0)
1=
13
1%
#645000
b1 !
b0 !
08
07
1)
0:
0=
03
10
0%
1(
#650000
b10 !
b11 !
18
17
0)
1:
1=
13
00
1%
0(
#655000
b1 !
07
1)
0=
03
0%
#665000
b101 !
19
0)
1>
15
1#
#670000
b100 !
b110 !
b10 !
08
17
09
1)
0>
1;
11
05
1'
0#
#675000
b110 !
19
0)
0;
01
0'
#680000
b111 !
b101 !
b1 !
18
07
09
1)
#685000
b11 !
17
0)
1=
13
1%
#690000
b111 !
19
1)
1?
0=
03
16
0%
1"
#695000
b110 !
b100 !
b0 !
08
07
09
0)
0:
0?
06
10
0"
1(
#700000
b1 !
b11 !
18
17
1)
1:
1=
13
00
1%
0(
#705000
b111 !
b110 !
08
19
0)
0=
03
0%
#710000
b100 !
07
1)
1<
12
14
1&
1$
#715000
b101 !
18
0)
1>
0<
02
04
15
0&
0$
1#
#720000
b111 !
17
1)
1?
0>
05
16
0#
1"
#725000
b11 !
b1 !
07
09
0)
0?
06
0"
#730000
b0 !
b10 !
08
17
1)
1;
11
1'
#735000
b110 !
19
0)
0;
01
0'
#740000
b10 !
09
1)
1;
11
1'
#745000
b11 !
b111 !
18
19
0)
1?
0;
01
16
0'
1"
#750000
b11 !
09
1)
0?
1=
13
06
1%
0"
#755000
b1 !
07
0)
0=
03
0%
#760000
b101 !
b111 !
17
19
1)
1?
16
1"
#765000
b11 !
09
0)
0?
1=
13
06
1%
0"
#770000
b111 !
19
1)
1?
0=
03
16
0%
1"
#775000
b110 !
b100 !
08
07
0)
0?
1<
12
14
06
1&
1$
0"
#780000
b101 !
b111 !
18
17
1)
1?
0<
02
04
16
0&
0$
1"
#790000
b11 !
b10 !
b0 !
08
07
09
0)
0:
0?
06
10
0"
1(
#795000
b10 !
17
1)
1:
1;
11
00
1'
0(
#800000
b11 !
18
0)
1=
0;
01
13
0'
1%
#805000
b1 !
b0 !
08
07
1)
0:
0=
03
10
0%
1(
#810000
b100 !
b101 !
18
19
0)
1:
1>
15
00
1#
0(
#815000
b100 !
08
1)
0>
1<
12
14
05
1&
1$
0#
#820000
b0 !
b1 !
18
09
0)
0<
02
04
0&
0$
#825000
b11 !
b10 !
08
17
1)
1;
11
1'
#830000
b110 !
b100 !
b101 !
18
07
19
0)
1>
0;
01
15
0'
1#
#835000
b111 !
b110 !
08
17
1)
0>
05
0#
#840000
b100 !
b101 !
18
07
0)
1>
15
1#
#850000
b1 !
b11 !
b10 !
08
17
09
1)
0>
1;
11
05
1'
0#
#855000
b110 !
b111 !
18
19
0)
1?
0;
01
16
0'
1"
#865000
b101 !
b100 !
08
07
1)
0?
1<
12
14
06
1&
1$
0"
#870000
b110 !
17
0)
0<
02
04
0&
0$
#875000
b10 !
b0 !
07
09
1)
0:
10
1(
#880000
b1 !
b11 !
18
17
0)
1:
1=
13
00
1%
0(
#890000
b10 !
08
1)
0=
1;
11
03
1'
0%
#895000
b110 !
b111 !
18
19
0)
1?
0;
01
16
0'
1"
#900000
b101 !
b100 !
08
07
1)
0?
1<
12
14
06
1&
1$
0"
#905000
b101 !
18
0)
1>
0<
02
04
15
0&
0$
1#
#910000
b100 !
08
1)
0>
1<
12
14
05
1&
1$
0#
#915000
b0 !
b10 !
17
09
0)
0<
1;
11
02
04
1'
0&
0$
#920000
b11 !
b111 !
18
19
1)
1?
0;
01
16
0'
1"
#925000
b101 !
b100 !
b0 !
08
07
09
0)
0:
0?
06
10
0"
1(
#930000
b100 !
19
1)
1:
1<
12
14
00
1&
1$
0(
#940000
b110 !
b10 !
17
09
0)
0<
1;
11
02
04
1'
0&
0$
#945000
b0 !
b100 !
07
19
1)
1<
0;
01
12
14
0'
1&
1$
#950000
b110 !
17
0)
0<
02
04
0&
0$
#955000
b111 !
18
1)
1?
16
1"
#960000
b101 !
b100 !
08
07
0)
0?
1<
12
14
06
1&
1$
0"
#965000
b0 !
09
1)
0:
0<
02
04
10
0&
0$
1(
#970000
b10 !
b110 !
17
19
0)
1:
00
0(
#975000
b100 !
07
1)
1<
12
14
1&
1$
#980000
b110 !
17
0)
0<
02
04
0&
0$
#985000
b111 !
b11 !
18
09
1)
1=
13
1%
#990000
b10 !
b110 !
08
19
0)
0=
03
0%
#995000
b100 !
b101 !
18
07
1)
1>
15
1#
