Código_Maq_Moore/Placard_Resultados/simulation/qsim/Placard_Resultados.msim.vcd
$comment
	File created using the following command:
		vcd file Placard_Resultados.msim.vcd -direction
$end
$date
	Thu Jun 04 23:34:47 2020
$end
$version
	ModelSim Version 10.3d
$end
$timescale
	1ps
$end

$scope module Placard_Resultados_vlg_vec_tst $end
$var reg 1 ! clock $end
$var reg 6 " estados [5:0] $end
$var reg 1 # PONTO $end
$var reg 1 $ reset $end
$var wire 1 % PONTUACAO0 [2] $end
$var wire 1 & PONTUACAO0 [1] $end
$var wire 1 ' PONTUACAO0 [0] $end
$var wire 1 ( PONTUACAO1 [2] $end
$var wire 1 ) PONTUACAO1 [1] $end
$var wire 1 * PONTUACAO1 [0] $end
$var wire 1 + sampler $end

$scope module i1 $end
$var wire 1 , gnd $end
$var wire 1 - vcc $end
$var wire 1 . unknown $end
$var tri1 1 / devclrn $end
$var tri1 1 0 devpor $end
$var tri1 1 1 devoe $end
$var wire 1 2 estados[0]~input_o $end
$var wire 1 3 estados[1]~input_o $end
$var wire 1 4 PONTUACAO1[0]~output_o $end
$var wire 1 5 PONTUACAO1[1]~output_o $end
$var wire 1 6 PONTUACAO1[2]~output_o $end
$var wire 1 7 PONTUACAO0[0]~output_o $end
$var wire 1 8 PONTUACAO0[1]~output_o $end
$var wire 1 9 PONTUACAO0[2]~output_o $end
$var wire 1 : clock~input_o $end
$var wire 1 ; PONTO~input_o $end
$var wire 1 < estados[5]~input_o $end
$var wire 1 = estados[3]~input_o $end
$var wire 1 > estados[4]~input_o $end
$var wire 1 ? reset~input_o $end
$var wire 1 @ Selector10~0_combout $end
$var wire 1 A estados[2]~input_o $end
$var wire 1 B Selector10~2_combout $end
$var wire 1 C Selector10~3_combout $end
$var wire 1 D ESTADO1.ZERO~q $end
$var wire 1 E ESTADO1.UM~0_combout $end
$var wire 1 F ESTADO1.UM~q $end
$var wire 1 G Selector12~1_combout $end
$var wire 1 H ESTADO1.DOIS~q $end
$var wire 1 I Selector13~0_combout $end
$var wire 1 J ESTADO1.TRES~q $end
$var wire 1 K Selector14~0_combout $end
$var wire 1 L ESTADO1.QUATRO~q $end
$var wire 1 M Selector10~1_combout $end
$var wire 1 N ESTADO1.CINCO~q $end
$var wire 1 O Selector19~0_combout $end
$var wire 1 P ESTADO1.SEIS~0_combout $end
$var wire 1 Q ESTADO1.SEIS~q $end
$var wire 1 R Selector19~1_combout $end
$var wire 1 S Selector19~2_combout $end
$var wire 1 T Selector19~3_combout $end
$var wire 1 U Selector19~4_combout $end
$var wire 1 V PONTUACAO1[0]~reg0_q $end
$var wire 1 W Selector18~0_combout $end
$var wire 1 X Selector18~1_combout $end
$var wire 1 Y Selector18~2_combout $end
$var wire 1 Z Selector18~3_combout $end
$var wire 1 [ PONTUACAO1[1]~reg0_q $end
$var wire 1 \ Selector12~0_combout $end
$var wire 1 ] Selector17~0_combout $end
$var wire 1 ^ Selector17~1_combout $end
$var wire 1 _ Selector17~2_combout $end
$var wire 1 ` PONTUACAO1[2]~reg0_q $end
$var wire 1 a Selector4~0_combout $end
$var wire 1 b ESTADO0.QUATRO~q $end
$var wire 1 c Selector5~0_combout $end
$var wire 1 d ESTADO0.CINCO~q $end
$var wire 1 e Selector6~0_combout $end
$var wire 1 f ESTADO0.SEIS~q $end
$var wire 1 g ESTADO0.ZERO~0_combout $end
$var wire 1 h ESTADO0.ZERO~q $end
$var wire 1 i ESTADO0.UM~0_combout $end
$var wire 1 j ESTADO0.UM~q $end
$var wire 1 k Selector2~0_combout $end
$var wire 1 l ESTADO0.DOIS~q $end
$var wire 1 m Selector3~0_combout $end
$var wire 1 n ESTADO0.TRES~q $end
$var wire 1 o Selector9~0_combout $end
$var wire 1 p Selector9~1_combout $end
$var wire 1 q Selector9~2_combout $end
$var wire 1 r Selector9~3_combout $end
$var wire 1 s Selector9~4_combout $end
$var wire 1 t PONTUACAO0[0]~reg0_q $end
$var wire 1 u Selector8~0_combout $end
$var wire 1 v Selector8~1_combout $end
$var wire 1 w Selector8~2_combout $end
$var wire 1 x Selector8~3_combout $end
$var wire 1 y PONTUACAO0[1]~reg0_q $end
$var wire 1 z Selector7~2_combout $end
$var wire 1 { Selector7~1_combout $end
$var wire 1 | Selector7~0_combout $end
$var wire 1 } Selector7~3_combout $end
$var wire 1 ~ PONTUACAO0[2]~reg0_q $end
$upscope $end
$upscope $end
$enddefinitions $end
#0
$dumpvars
0!
b0 "
1#
1$
0'
0&
0%
0*
0)
0(
x+
0,
1-
x.
1/
10
11
02
03
04
05
06
07
08
09
0:
1;
0<
0=
0>
1?
0@
0A
0B
1C
0D
1E
0F
0G
0H
0I
0J
0K
0L
0M
0N
1O
0P
0Q
1R
0S
0T
1U
0V
0W
1X
1Y
0Z
0[
0\
1]
0^
0_
0`
0a
0b
0c
0d
0e
0f
1g
0h
1i
0j
0k
0l
0m
0n
0o
0p
1q
0r
1s
0t
0u
0v
0w
0x
0y
0z
0{
0|
0}
0~
$end
#10000
1!
0+
1:
#15000
0!
1+
0:
#20000
1!
0+
1:
#25000
0!
1+
0:
#30000
1!
0+
1:
#55000
0!
1+
0:
#65000
1!
0+
1:
#75000
0!
1+
0:
#80000
1!
0+
1:
#85000
0!
1+
0:
#95000
1!
0+
1:
#105000
0!
1+
0:
#110000
1!
0+
1:
#115000
0!
1+
0:
#140000
1!
0+
1:
#155000
0!
1+
0:
#165000
1!
0+
1:
#170000
0!
1+
0:
#175000
1!
0+
1:
#180000
0!
1+
0:
#190000
1!
0+
1:
#195000
0!
1+
0:
#200000
1!
0+
1:
#210000
0!
1+
0:
#225000
1!
0+
1:
#230000
0!
1+
0:
#245000
1!
0+
1:
#265000
0!
1+
0:
#270000
1!
0+
1:
#275000
0!
1+
0:
#285000
1!
0+
1:
#300000
0!
1+
0:
#310000
1!
0+
1:
#325000
0!
1+
0:
#335000
1!
0+
1:
#355000
0!
1+
0:
#360000
1!
0+
1:
#365000
0!
1+
0:
#370000
1!
0+
1:
#375000
0!
1+
0:
#380000
1!
0+
1:
#390000
0!
1+
0:
#400000
1!
0+
1:
#410000
0!
1+
0:
#415000
1!
0+
1:
#420000
0!
1+
0:
#425000
1!
0+
1:
#435000
0!
1+
0:
#450000
1!
0+
1:
#475000
0!
1+
0:
#490000
1!
0+
1:
#495000
0!
1+
0:
#500000
1!
0+
1:
#515000
0!
1+
0:
#520000
1!
0+
1:
#525000
0!
1+
0:
#550000
1!
0+
1:
#560000
0!
1+
0:
#565000
1!
0+
1:
#580000
0!
1+
0:
#590000
1!
0+
1:
#595000
0!
1+
0:
#600000
1!
0+
1:
#605000
0!
1+
0:
#610000
1!
0+
1:
#615000
0!
1+
0:
#630000
1!
0+
1:
#635000
0!
1+
0:
#650000
1!
0+
1:
#665000
0!
1+
0:
#670000
1!
0+
1:
#690000
0!
1+
0:
#695000
1!
0+
1:
#700000
0!
1+
0:
#705000
1!
0+
1:
#710000
0!
1+
0:
#715000
1!
0+
1:
#720000
0!
1+
0:
#725000
1!
0+
1:
#735000
0!
1+
0:
#740000
1!
0+
1:
#745000
0!
1+
0:
#755000
1!
0+
1:
#765000
0!
1+
0:
#770000
1!
0+
1:
#780000
0!
1+
0:
#790000
1!
0+
1:
#800000
0!
1+
0:
#805000
1!
0+
1:
#815000
0!
1+
0:
#825000
1!
0+
1:
#830000
0!
1+
0:
#835000
1!
0+
1:
#840000
0!
1+
0:
#850000
1!
0+
1:
#875000
0!
1+
0:
#880000
1!
0+
1:
#885000
0!
1+
0:
#915000
1!
0+
1:
#925000
0!
1+
0:
#935000
1!
0+
1:
#945000
0!
1+
0:
#950000
1!
0+
1:
#960000
0!
1+
0:
#965000
1!
0+
1:
#990000
0!
1+
0:
