Maquina_Estado/simulation/qsim/maquinaestado.msim.vcd
$comment
	File created using the following command:
		vcd file maquinaestado.msim.vcd -direction
$end
$date
	Thu Jun 04 17:39:55 2020
$end
$version
	ModelSim Version 10.3d
$end
$timescale
	1ps
$end

$scope module maquinaestado_vlg_vec_tst $end
$var reg 1 ! clk $end
$var reg 1 " level $end
$var reg 1 # reset $end
$var wire 1 $ Mealy_tick $end
$var wire 1 % Moore_tick $end
$var wire 1 & sampler $end

$scope module i1 $end
$var wire 1 ' gnd $end
$var wire 1 ( vcc $end
$var wire 1 ) unknown $end
$var tri1 1 * devclrn $end
$var tri1 1 + devpor $end
$var tri1 1 , devoe $end
$var wire 1 - ~QUARTUS_CREATED_GND~I_combout $end
$var wire 1 . level~input_o $end
$var wire 1 / clk~input_o $end
$var wire 1 0 clk~inputCLKENA0_outclk $end
$var wire 1 1 stateMealy_reg~feeder_combout $end
$var wire 1 2 reset~input_o $end
$var wire 1 3 stateMealy_reg~q $end
$var wire 1 4 Mealy_tick~0_combout $end
$var wire 1 5 stateMoore_reg.edge~q $end
$upscope $end
$upscope $end
$enddefinitions $end
#0
$dumpvars
0!
1"
0#
1$
0%
x&
0'
1(
x)
1*
1+
1,
0-
1.
0/
00
11
02
03
14
05
$end
#10000
1!
1/
0&
10
13
15
1%
04
0$
#25000
0!
0/
1&
00
#35000
1!
1/
0&
10
05
0%
#40000
0!
0/
1&
00
#45000
1!
1/
0&
10
#55000
0!
0/
1&
00
#60000
1!
1/
0&
10
#70000
0!
0/
1&
00
#75000
1!
1/
0&
10
#85000
0!
0/
1&
00
#100000
1!
1/
0&
10
#125000
0!
0/
1&
00
#160000
1!
1/
0&
10
#175000
0!
0/
1&
00
#185000
1!
1/
0&
10
#190000
0!
0/
1&
00
#195000
1!
1/
0&
10
#200000
0!
0/
1&
00
#205000
1!
1/
0&
10
#210000
0!
0/
1&
00
#220000
1!
1/
0&
10
#235000
0!
0/
1&
00
#240000
1!
1/
0&
10
#250000
0!
0/
1&
00
#260000
1!
1/
0&
10
#280000
0!
0/
1&
00
#285000
1!
1/
0&
10
#290000
0!
0/
1&
00
#295000
1!
1/
0&
10
#305000
0!
0/
1&
00
#325000
1!
1/
0&
10
#345000
0!
0/
1&
00
#355000
1!
1/
0&
10
#360000
0!
0/
1&
00
#365000
1!
1/
0&
10
#375000
0!
0/
1&
00
#390000
1!
1/
0&
10
#400000
0!
0/
1&
00
#405000
1!
1/
0&
10
#410000
0!
0/
1&
00
#425000
1!
1/
0&
10
#430000
0!
0/
1&
00
#445000
1!
1/
0&
10
#450000
0!
0/
1&
00
#455000
1!
1/
0&
10
#460000
0!
0/
1&
00
#470000
1!
1/
0&
10
#475000
0!
0/
1&
00
#485000
1!
1/
0&
10
#495000
0!
0/
1&
00
#515000
1!
1/
0&
10
#520000
0!
0/
1&
00
#535000
1!
1/
0&
10
#540000
0!
0/
1&
00
#545000
1!
1/
0&
10
#555000
0!
0/
1&
00
#575000
1!
1/
0&
10
#580000
0!
0/
1&
00
#590000
1!
1/
0&
10
#595000
0!
0/
1&
00
#605000
1!
1/
0&
10
#610000
0!
0/
1&
00
#615000
1!
1/
0&
10
#620000
0!
0/
1&
00
#645000
1!
1/
0&
10
#650000
0!
0/
1&
00
#655000
1!
1/
0&
10
#665000
0!
0/
1&
00
#680000
1!
1/
0&
10
#690000
0!
0/
1&
00
#695000
1!
1/
0&
10
#705000
0!
0/
1&
00
#715000
1!
1/
0&
10
#740000
0!
0/
1&
00
#760000
1!
1/
0&
10
#795000
0!
0/
1&
00
#805000
1!
1/
0&
10
#815000
0!
0/
1&
00
#820000
1!
1/
0&
10
#830000
0!
0/
1&
00
#870000
1!
1/
0&
10
#880000
0!
0/
1&
00
#885000
1!
1/
0&
10
#890000
0!
0/
1&
00
#905000
1!
1/
0&
10
#910000
0!
0/
1&
00
#915000
1!
1/
0&
10
#920000
0!
0/
1&
00
#935000
1!
1/
0&
10
#945000
0!
0/
1&
00
#950000
1!
1/
0&
10
#955000
0!
0/
1&
00
#975000
1!
1/
0&
10
#980000
0!
0/
1&
00
#985000
1!
1/
0&
10
#990000
0!
0/
1&
00
#995000
1!
1/
0&
10
