Código_Sequencial/MUX_Case/simulation/qsim/exercicioMUX.msim.vcd
$comment
	File created using the following command:
		vcd file exercicioMUX.msim.vcd -direction
$end
$date
	Thu Jun 04 22:01:41 2020
$end
$version
	ModelSim Version 10.3d
$end
$timescale
	1ps
$end

$scope module exercicioMUX_vlg_vec_tst $end
$var reg 6 ! a_IN [5:0] $end
$var reg 1 " enable $end
$var reg 1 # enable1 $end
$var reg 3 $ sel [2:0] $end
$var wire 1 % b_OUT $end
$var wire 1 & sampler $end

$scope module i1 $end
$var wire 1 ' gnd $end
$var wire 1 ( vcc $end
$var wire 1 ) unknown $end
$var tri1 1 * devclrn $end
$var tri1 1 + devpor $end
$var tri1 1 , devoe $end
$var wire 1 - b_OUT~output_o $end
$var wire 1 . sel[2]~input_o $end
$var wire 1 / sel[0]~input_o $end
$var wire 1 0 sel[1]~input_o $end
$var wire 1 1 a_IN[0]~input_o $end
$var wire 1 2 a_IN[1]~input_o $end
$var wire 1 3 a_IN[2]~input_o $end
$var wire 1 4 a_IN[3]~input_o $end
$var wire 1 5 Mux0~0_combout $end
$var wire 1 6 a_IN[4]~input_o $end
$var wire 1 7 a_IN[5]~input_o $end
$var wire 1 8 Mux0~1_combout $end
$var wire 1 9 enable~input_o $end
$var wire 1 : enable1~input_o $end
$var wire 1 ; b_OUT~1_combout $end
$upscope $end
$upscope $end
$enddefinitions $end
#0
$dumpvars
b10000 !
0"
1#
b111 $
z%
x&
0'
1(
x)
1*
1+
1,
z-
1.
1/
10
01
02
03
04
05
16
07
08
09
1:
0;
$end
#10000
b11 $
b1 $
00
0.
0&
1;
0-
0%
#20000
b0 $
0/
1&
#30000
b10 $
b11 $
1/
10
0&
#40000
b0 !
b111 $
b101 $
b100 $
0/
00
1.
06
1&
#50000
b10000 !
b110 $
b111 $
1/
10
16
0&
0;
z-
z%
#60000
b0 !
b101 $
b100 $
0/
00
06
1&
1;
0-
0%
#70000
b10000 !
b110 $
b111 $
1/
10
16
0&
0;
z-
z%
#80000
b0 !
b101 $
00
06
1&
1;
0-
0%
#90000
b10000 !
b111 $
10
16
0&
0;
z-
z%
#100000
b101 $
00
1&
1;
0-
0%
#110000
b1 $
b11 $
10
0.
0&
#120000
b10 $
b110 $
0/
1.
1&
0;
z-
z%
#130000
b0 !
b10 $
0.
06
0&
1;
0-
0%
#140000
b11 $
b111 $
1/
1.
1&
0;
z-
z%
#150000
b101 $
b10000 !
b100 $
b0 $
16
0/
00
0.
0&
1;
0-
0%
#160000
b10 $
b0 !
06
10
1&
#170000
b110 $
1.
0&
0;
z-
z%
#180000
b111 $
b101 $
b10000 !
16
1/
00
1&
1;
0-
0%
#190000
b1 $
b0 $
b0 !
06
0/
0.
0&
#200000
b100 $
1.
1&
#210000
b110 $
b10000 !
b10 $
16
10
0.
0&
#220000
b11 $
1/
1&
#230000
b1 $
b0 !
06
00
0&
#240000
b101 $
b111 $
10
1.
1&
0;
z-
z%
#250000
b110 $
b10 $
b0 $
0/
00
0.
0&
1;
0-
0%
#260000
b1 $
b101 $
1/
1.
1&
#270000
b111 $
10
0&
0;
z-
z%
#280000
b10000 !
b11 $
0.
16
1&
1;
0-
0%
#290000
b10 $
b0 $
0/
00
0&
#300000
b0 !
06
1&
#310000
b1 $
b11 $
1/
10
0&
#320000
b111 $
b10000 !
b110 $
b100 $
16
0/
00
1.
1&
18
1-
1%
#330000
b0 $
b0 !
b1 $
06
1/
0.
0&
08
0-
0%
#340000
b11 $
b111 $
b10000 !
b110 $
16
0/
10
1.
1&
0;
z-
z%
#350000
b111 $
1/
0&
#360000
b101 $
b0 !
b100 $
06
0/
00
1&
1;
0-
0%
#370000
b0 $
b10 $
10
0.
0&
#380000
b11 $
1/
1&
#390000
b111 $
1.
0&
0;
z-
z%
#400000
b101 $
b1 $
00
0.
1&
1;
0-
0%
#410000
b10000 !
b0 $
b10 $
b110 $
0/
10
1.
16
0&
0;
z-
z%
#420000
b0 !
b100 $
b0 $
00
0.
06
1&
1;
0-
0%
#430000
b1 $
b10000 !
16
1/
0&
#440000
b11 $
10
1&
#450000
b111 $
b110 $
b0 !
b100 $
06
0/
00
1.
0&
#460000
b0 $
b1 $
b10000 !
b11 $
16
1/
10
0.
1&
#470000
b111 $
b110 $
b0 !
06
0/
1.
0&
0;
z-
z%
#480000
b100 $
b0 $
b10000 !
16
00
0.
1&
1;
0-
0%
#490000
b0 !
06
0&
#500000
b1 $
b11 $
b10000 !
16
1/
10
1&
#510000
b111 $
b110 $
0/
1.
0&
0;
z-
z%
#520000
b100 $
b0 !
b0 $
06
00
0.
1&
1;
0-
0%
#530000
b1 $
b11 $
b10000 !
16
1/
10
0&
#540000
b111 $
b101 $
00
1.
1&
#550000
b0 !
b111 $
10
06
0&
0;
z-
z%
#560000
b110 $
b10 $
0/
0.
1&
1;
0-
0%
#570000
b0 $
b1 $
1/
00
0&
#580000
b11 $
b10 $
0/
10
1&
#590000
b0 $
b1 $
1/
00
0&
#600000
b10000 !
b11 $
10
16
1&
#610000
b0 !
b1 $
00
06
0&
#620000
b10000 !
b11 $
10
16
1&
#630000
b0 !
06
0&
#640000
b111 $
1.
1&
0;
z-
z%
#650000
b110 $
b10000 !
b10 $
16
0/
0.
0&
1;
0-
0%
#660000
b11 $
b111 $
1/
1.
1&
0;
z-
z%
#670000
b101 $
b100 $
b0 $
0/
00
0.
0&
1;
0-
0%
#680000
b10 $
b11 $
1/
10
1&
#690000
b111 $
1.
0&
0;
z-
z%
#710000
b101 $
00
1&
1;
0-
0%
#720000
b1 $
0.
0&
#730000
b0 $
0/
1&
#740000
b1 $
1/
0&
#750000
b0 !
06
1&
#760000
b0 $
0/
0&
#770000
b100 $
b10000 !
16
1.
1&
18
1-
1%
#780000
b101 $
b0 !
06
1/
0&
08
0-
0%
#790000
b111 $
b11 $
b10 $
0/
10
0.
1&
#800000
b0 $
b1 $
1/
00
0&
#820000
b11 $
10
1&
#830000
b10000 !
b1 $
00
16
0&
#840000
b0 $
b0 !
06
0/
1&
#850000
b100 $
b101 $
1/
1.
0&
#860000
b10000 !
b1 $
0.
16
1&
#870000
b11 $
b0 !
06
10
0&
#880000
b10 $
b110 $
b10000 !
16
0/
1.
1&
0;
z-
z%
#890000
b0 !
06
0&
#910000
b111 $
b11 $
1/
0.
1&
1;
0-
0%
#920000
b10000 !
b10 $
b110 $
0/
1.
16
0&
0;
z-
z%
#930000
b100 $
b0 !
b101 $
b1 $
06
1/
00
0.
1&
1;
0-
0%
#940000
b101 $
1.
0&
#950000
b111 $
10
1&
0;
z-
z%
#960000
b10000 !
b11 $
0.
16
0&
1;
0-
0%
#980000
b10 $
b0 $
0/
00
1&
#990000
b0 !
06
0&
