TP1/simulation/qsim/MUX.msim.vcd
$comment
	File created using the following command:
		vcd file MUX.msim.vcd -direction
$end
$date
	Thu Apr 16 18:04:08 2020
$end
$version
	ModelSim Version 10.3d
$end
$timescale
	1ps
$end

$scope module MUX_vlg_vec_tst $end
$var reg 6 ! a_IN [5:0] $end
$var reg 1 " enable $end
$var reg 1 # enable1 $end
$var reg 3 $ sel [2:0] $end
$var wire 1 % b_OUT $end
$var wire 1 & sampler $end

$scope module i1 $end
$var wire 1 ' gnd $end
$var wire 1 ( vcc $end
$var wire 1 ) unknown $end
$var tri1 1 * devclrn $end
$var tri1 1 + devpor $end
$var tri1 1 , devoe $end
$var wire 1 - b_OUT~output_o $end
$var wire 1 . sel[0]~input_o $end
$var wire 1 / a_IN[0]~input_o $end
$var wire 1 0 a_IN[2]~input_o $end
$var wire 1 1 sel[1]~input_o $end
$var wire 1 2 Mux0~1_combout $end
$var wire 1 3 a_IN[3]~input_o $end
$var wire 1 4 a_IN[1]~input_o $end
$var wire 1 5 Mux0~2_combout $end
$var wire 1 6 a_IN[4]~input_o $end
$var wire 1 7 a_IN[5]~input_o $end
$var wire 1 8 Mux0~0_combout $end
$var wire 1 9 sel[2]~input_o $end
$var wire 1 : Mux0~3_combout $end
$var wire 1 ; enable~input_o $end
$var wire 1 < enable1~input_o $end
$var wire 1 = b_OUT~1_combout $end
$upscope $end
$upscope $end
$enddefinitions $end
#0
$dumpvars
b0 !
0"
1#
b111 $
z%
x&
0'
1(
x)
1*
1+
1,
z-
1.
0/
00
11
12
03
04
05
06
07
08
19
0:
0;
1<
0=
$end
#10000
b10000 !
16
0&
#20000
b0 !
06
1&
#30000
b10000 !
16
0&
#40000
b0 !
06
1&
#50000
b10 !
b10010 !
14
16
0&
#60000
b10 !
06
1&
#70000
b10010 !
16
0&
#80000
b10 !
06
1&
#90000
b10010 !
16
0&
#100000
b10000 !
b0 !
04
06
1&
#110000
b10000 !
16
0&
#120000
b0 !
06
1&
#130000
b10000 !
16
0&
#140000
b0 !
06
1&
#150000
b10 !
b10010 !
14
16
0&
#160000
b10 !
06
1&
#170000
b10010 !
16
0&
#180000
b10 !
06
1&
#190000
b10010 !
16
0&
#200000
b10000 !
b0 !
04
06
1&
#210000
b10000 !
16
0&
#220000
b0 !
06
1&
#230000
b10000 !
16
0&
#240000
b0 !
06
1&
#250000
b10 !
b10010 !
14
16
0&
#260000
b10 !
06
1&
#270000
b10010 !
16
0&
#280000
b10 !
06
1&
#290000
b10010 !
16
0&
#300000
b10000 !
b0 !
04
06
1&
#310000
b10000 !
16
0&
#320000
b0 !
06
1&
#330000
b10000 !
16
0&
#340000
b0 !
06
1&
#350000
b10 !
b10010 !
14
16
0&
#360000
b10 !
06
1&
#370000
b10010 !
16
0&
#380000
b10 !
06
1&
#390000
b10010 !
16
0&
#400000
b10000 !
b0 !
04
06
1&
#410000
b10000 !
16
0&
#420000
b0 !
06
1&
#430000
b10000 !
16
0&
#440000
b0 !
06
1&
#450000
b10 !
b10010 !
14
16
0&
#460000
b10 !
06
1&
#470000
b10010 !
16
0&
#480000
b10 !
06
1&
#490000
b10010 !
16
0&
#500000
b10000 !
b0 !
04
06
1&
#510000
b10000 !
16
0&
#520000
b0 !
06
1&
#530000
b10000 !
16
0&
#540000
b0 !
06
1&
#550000
b10 !
b10010 !
14
16
0&
#560000
b10 !
06
1&
#570000
b10010 !
16
0&
#580000
b10 !
06
1&
#590000
b10010 !
16
0&
#600000
b10000 !
b0 !
04
06
1&
#610000
b10000 !
16
0&
#620000
b0 !
06
1&
#630000
b10000 !
16
0&
#640000
b0 !
06
1&
#650000
b10 !
b10010 !
14
16
0&
#660000
b10 !
06
1&
#670000
b10010 !
16
0&
#680000
b10 !
06
1&
#690000
b10010 !
16
0&
#700000
b10000 !
b0 !
04
06
1&
#710000
b10000 !
16
0&
#720000
b0 !
06
1&
#730000
b10000 !
16
0&
#740000
b0 !
06
1&
#750000
b10 !
b10010 !
14
16
0&
#760000
b10 !
06
1&
#770000
b10010 !
16
0&
#780000
b10 !
06
1&
#790000
b10010 !
16
0&
#800000
b10000 !
b0 !
04
06
1&
#810000
b10000 !
16
0&
#820000
b0 !
06
1&
#830000
b10000 !
16
0&
#840000
b0 !
06
1&
#850000
b10 !
b10010 !
14
16
0&
#860000
b10 !
06
1&
#870000
b10010 !
16
0&
#880000
b10 !
06
1&
#890000
b10010 !
16
0&
#900000
b10000 !
b0 !
04
06
1&
#910000
b10000 !
16
0&
#920000
b0 !
06
1&
#930000
b10000 !
16
0&
#940000
b0 !
06
1&
#950000
b10 !
b10010 !
14
16
0&
#960000
b10 !
06
1&
#970000
b10010 !
16
0&
#980000
b10 !
06
1&
#990000
b10010 !
16
0&
