Beep_Clock/simulation/qsim/beep_clock.msim.vcd
$comment
	File created using the following command:
		vcd file beep_clock.msim.vcd -direction
$end
$date
	Fri Jun 05 13:47:09 2020
$end
$version
	ModelSim Version 10.3d
$end
$timescale
	1ps
$end

$scope module beep_clock_vlg_vec_tst $end
$var reg 1 ! estadoA $end
$var reg 1 " estadoB $end
$var wire 1 # beep $end
$var wire 1 $ sampler $end

$scope module i1 $end
$var wire 1 % gnd $end
$var wire 1 & vcc $end
$var wire 1 ' unknown $end
$var tri1 1 ( devclrn $end
$var tri1 1 ) devpor $end
$var tri1 1 * devoe $end
$var wire 1 + estadoA~input_o $end
$var wire 1 , estadoB~input_o $end
$var wire 1 - beep~output_o $end
$upscope $end
$upscope $end
$enddefinitions $end
#0
$dumpvars
0!
1"
1#
x$
0%
1&
x'
1(
1)
1*
0+
1,
1-
$end
#5000
0"
0,
0$
#10000
1!
1+
1$
#15000
1"
0!
1,
0+
0$
#20000
1!
1+
1$
#25000
0"
0,
0$
#30000
1"
1,
1$
#35000
0"
0,
0$
#40000
1"
1,
1$
#45000
0!
0+
0$
#70000
1!
1+
1$
#75000
0!
0+
0$
#80000
0"
1!
0,
1+
1$
#90000
1"
0!
1,
0+
0$
#100000
0"
0,
1$
#105000
1"
1,
0$
#110000
1!
1+
1$
#115000
0"
0,
0$
#125000
0!
0+
1$
#130000
1"
1!
1,
1+
0$
#135000
0"
0,
1$
#140000
1"
1,
0$
#150000
0!
0"
0+
0,
1$
#170000
1!
1"
1+
1,
0$
#175000
0"
0,
1$
#180000
0!
0+
0$
#185000
1"
1!
1,
1+
1$
#190000
0"
0!
0,
0+
0$
#200000
1"
1,
1$
#205000
0"
0,
0$
#210000
1!
1"
1+
1,
1$
#215000
0!
0"
0+
0,
0$
#220000
1!
1"
1+
1,
1$
#225000
0!
0"
0+
0,
0$
#230000
1!
1+
1$
#235000
0!
0+
0$
#240000
1"
1,
1$
#250000
0"
0,
0$
#255000
1!
1"
1+
1,
1$
#260000
0!
0+
0$
#265000
1!
1+
1$
#270000
0"
0!
0,
0+
0$
#275000
1!
1+
1$
#290000
0!
0+
0$
#295000
1"
1!
1,
1+
1$
#300000
0"
0,
0$
#305000
0!
1"
0+
1,
1$
#310000
1!
1+
0$
#320000
0"
0,
1$
#325000
0!
1"
0+
1,
0$
#330000
1!
0"
1+
0,
1$
#335000
0!
0+
0$
#340000
1"
1!
1,
1+
1$
#345000
0!
0+
0$
#350000
0"
0,
1$
#355000
1"
1,
0$
#370000
0"
0,
1$
#375000
1!
1+
0$
#385000
1"
0!
1,
0+
1$
#395000
1!
1+
0$
#400000
0!
0+
1$
#405000
0"
0,
0$
#410000
1"
1,
1$
#420000
1!
1+
0$
#425000
0"
0,
1$
#430000
0!
1"
0+
1,
0$
#440000
1!
0"
1+
0,
1$
#460000
0!
1"
0+
1,
0$
#465000
1!
0"
1+
0,
1$
#470000
1"
1,
0$
#475000
0!
0+
1$
#480000
1!
1+
0$
#485000
0"
0,
1$
#490000
1"
1,
0$
#495000
0!
0+
1$
#500000
0"
1!
0,
1+
0$
#505000
0!
0+
1$
#515000
1!
1+
0$
#525000
0!
0+
1$
#535000
1"
1!
1,
1+
0$
#540000
0"
0!
0,
0+
1$
#545000
1"
1,
0$
#550000
1!
0"
1+
0,
1$
#555000
0!
1"
0+
1,
0$
#570000
0"
0,
1$
#580000
1"
1,
0$
#585000
1!
0"
1+
0,
1$
#590000
1"
1,
0$
#605000
0!
0"
0+
0,
1$
#610000
1!
1"
1+
1,
0$
#615000
0"
0,
1$
#620000
0!
0+
0$
#625000
1!
1+
1$
#630000
0!
0+
0$
#635000
1"
1!
1,
1+
1$
#645000
0!
0+
0$
#655000
0"
0,
1$
#660000
1"
1,
0$
#670000
1!
1+
1$
#680000
0!
0+
0$
#690000
1!
1+
1$
#695000
0"
0,
0$
#700000
0!
1"
0+
1,
1$
#705000
1!
1+
0$
#715000
0!
0+
1$
#720000
0"
0,
0$
#725000
1!
1"
1+
1,
1$
#730000
0"
0,
0$
#735000
1"
1,
1$
#740000
0"
0,
0$
#745000
1"
1,
1$
#750000
0!
0+
0$
#755000
0"
0,
1$
#760000
1"
1,
0$
#765000
0"
0,
1$
#770000
1!
1"
1+
1,
0$
#775000
0!
0"
0+
0,
1$
#780000
1!
1+
0$
#785000
1"
0!
1,
0+
1$
#790000
0"
1!
0,
1+
0$
#795000
1"
1,
1$
#810000
0"
0,
0$
#815000
0!
1"
0+
1,
1$
#820000
1!
1+
0$
#825000
0"
0,
1$
#830000
0!
1"
0+
1,
0$
#840000
1!
1+
1$
#845000
0"
0!
0,
0+
0$
#850000
1!
1+
1$
#855000
1"
0!
1,
0+
0$
#865000
1!
1+
1$
#870000
0"
0,
0$
#875000
1"
1,
1$
#880000
0!
0"
0+
0,
0$
#885000
1!
1+
1$
#895000
1"
1,
0$
#900000
0!
0+
1$
#910000
0"
1!
0,
1+
0$
#915000
1"
1,
1$
#920000
0!
0"
0+
0,
0$
#930000
1"
1,
1$
#935000
1!
1+
0$
#940000
0"
0!
0,
0+
1$
#945000
1"
1,
0$
#950000
0"
0,
1$
#975000
1!
1+
0$
#980000
1"
0!
1,
0+
1$
#985000
1!
1+
0$
#990000
0"
0!
0,
0+
1$
#995000
1"
1,
0$
