Código_Sequencial/ControloPessoas/simulation/qsim/controlo_pessoas.msim.vcd
$comment
	File created using the following command:
		vcd file controlo_pessoas.msim.vcd -direction
$end
$date
	Sat Jun 06 19:51:05 2020
$end
$version
	ModelSim Version 10.3d
$end
$timescale
	1ps
$end

$scope module controlo_pessoas_vlg_vec_tst $end
$var reg 1 ! clk $end
$var reg 2 " in1 [1:0] $end
$var wire 1 # saida_moore [6] $end
$var wire 1 $ saida_moore [5] $end
$var wire 1 % saida_moore [4] $end
$var wire 1 & saida_moore [3] $end
$var wire 1 ' saida_moore [2] $end
$var wire 1 ( saida_moore [1] $end
$var wire 1 ) saida_moore [0] $end
$var wire 1 * sampler $end

$scope module i1 $end
$var wire 1 + gnd $end
$var wire 1 , vcc $end
$var wire 1 - unknown $end
$var tri1 1 . devclrn $end
$var tri1 1 / devpor $end
$var tri1 1 0 devoe $end
$var wire 1 1 saida_moore[0]~output_o $end
$var wire 1 2 saida_moore[1]~output_o $end
$var wire 1 3 saida_moore[2]~output_o $end
$var wire 1 4 saida_moore[3]~output_o $end
$var wire 1 5 saida_moore[4]~output_o $end
$var wire 1 6 saida_moore[5]~output_o $end
$var wire 1 7 saida_moore[6]~output_o $end
$var wire 1 8 clk~input_o $end
$var wire 1 9 in1[0]~input_o $end
$var wire 1 : in1[1]~input_o $end
$var wire 1 ; Selector5~0_combout $end
$var wire 1 < present_state.p6~q $end
$var wire 1 = Selector4~0_combout $end
$var wire 1 > present_state.p5~q $end
$var wire 1 ? Selector3~0_combout $end
$var wire 1 @ present_state.p4~q $end
$var wire 1 A Selector2~0_combout $end
$var wire 1 B present_state.p3~q $end
$var wire 1 C Selector1~0_combout $end
$var wire 1 D present_state.p2~q $end
$var wire 1 E Selector0~0_combout $end
$var wire 1 F present_state.p1~q $end
$var wire 1 G saida_moore~0_combout $end
$var wire 1 H WideOr0~combout $end
$var wire 1 I saida_moore~1_combout $end
$var wire 1 J saida_moore~2_combout $end
$upscope $end
$upscope $end
$enddefinitions $end
#0
$dumpvars
1!
b10 "
0)
1(
1'
1&
1%
1$
1#
x*
0+
1,
x-
1.
1/
10
01
12
13
14
15
16
17
18
09
1:
0;
0<
0=
0>
0?
0@
0A
0B
1C
0D
1E
0F
1G
1H
1I
0J
$end
#5000
b11 "
19
0*
0E
0C
#15000
0!
1*
08
#20000
b10 "
1!
09
0*
18
1E
1C
#25000
b11 "
0!
19
1*
08
0E
0C
#35000
b1 "
0:
0*
#40000
1!
1*
18
#45000
b0 "
09
0*
#50000
b10 "
1:
1*
1E
1C
#60000
0!
b11 "
19
0*
08
0E
0C
#65000
1!
1*
18
#70000
b1 "
0!
0:
0*
08
#75000
b0 "
1!
09
1*
18
#80000
b10 "
b11 "
0!
19
1:
0*
08
#85000
b10 "
1!
09
1*
18
1E
1C
#90000
b0 "
0:
0*
0E
0C
#95000
0!
1*
08
#100000
b10 "
1:
0*
1E
1C
#105000
1!
1*
18
1F
1D
1J
0C
1A
0I
0H
02
03
07
04
0(
0'
0#
0&
#110000
b11 "
b1 "
0!
19
0:
0*
08
0E
0A
#115000
b0 "
b10 "
1!
09
1:
1*
18
1E
1A
0F
0D
0J
1C
0A
1I
1H
12
13
17
14
1(
1'
1#
1&
#120000
b11 "
0!
19
0*
08
0E
0C
#125000
b1 "
b0 "
09
0:
1*
#130000
1!
0*
18
#135000
b10 "
b11 "
0!
19
1:
1*
08
#140000
b1 "
b0 "
1!
09
0:
0*
18
#145000
b1 "
0!
19
1*
08
#150000
b11 "
b10 "
09
1:
0*
1E
1C
#155000
b0 "
b1 "
19
0:
1*
0E
0C
#165000
1!
b0 "
09
0*
18
#170000
b1 "
19
1*
#175000
b11 "
0!
1:
0*
08
#180000
1!
1*
18
#185000
b10 "
b0 "
0!
09
0:
0*
08
#190000
b1 "
b11 "
19
1:
1*
#195000
1!
0*
18
#200000
b10 "
b0 "
0!
09
0:
1*
08
#210000
b10 "
1:
0*
1E
1C
#215000
1!
1*
18
1F
1D
1J
0C
1A
0I
0H
02
03
07
04
0(
0'
0#
0&
#225000
b0 "
0:
0*
1C
0A
#235000
b1 "
19
1*
0E
0C
#240000
0!
b11 "
1:
0*
08
1E
1C
#245000
1!
b1 "
0:
1*
18
0E
0C
#250000
b0 "
0!
09
0*
08
1E
1C
#255000
b10 "
1:
1*
0C
1A
#260000
b11 "
1!
b1 "
19
0:
0*
18
0E
0A
0D
1B
05
0J
0G
0%
1I
1C
1E
13
11
17
14
1'
1)
1#
1&
#265000
b11 "
1:
1*
0C
1A
#270000
b10 "
b0 "
09
0:
0*
#275000
0!
b1 "
19
1*
08
1C
0A
#285000
1!
b0 "
09
0*
18
0C
1A
1D
0B
15
1J
1G
1%
0I
1C
0A
03
01
07
04
0'
0)
0#
0&
#290000
0!
b1 "
19
1*
08
0E
0C
#295000
1!
b0 "
09
0*
18
1E
1C
0F
0D
0J
0E
0C
1I
1H
12
13
17
14
1(
1'
1#
1&
#300000
0!
b1 "
19
1*
08
#305000
1!
0*
18
#310000
b0 "
0!
09
1*
08
#320000
b10 "
1!
1:
0*
18
1E
1C
#325000
b11 "
b1 "
0!
19
0:
1*
08
0E
0C
#330000
b11 "
1:
0*
#335000
b10 "
09
1*
1E
1C
#340000
1!
0*
18
1F
1D
1J
0C
1A
0I
0H
02
03
07
04
0(
0'
0#
0&
#345000
b0 "
b1 "
0!
19
0:
1*
08
0E
0A
#350000
b11 "
1!
1:
0*
18
1E
1C
0F
0D
0J
0E
0C
1I
1H
12
13
17
14
1(
1'
1#
1&
#355000
b10 "
09
1*
1E
1C
#360000
b0 "
0!
0:
0*
08
0E
0C
#365000
b1 "
b11 "
1!
19
1:
1*
18
#370000
b1 "
0!
0:
0*
08
#375000
1!
1*
18
#380000
b0 "
b10 "
09
1:
0*
1E
1C
#385000
b11 "
b1 "
19
0:
1*
0E
0C
#395000
0!
0*
08
#400000
b0 "
09
1*
#405000
b10 "
1!
b11 "
19
1:
0*
18
#410000
0!
b10 "
09
1*
08
1E
1C
#415000
1!
0*
18
1F
1D
1J
0C
1A
0I
0H
02
03
07
04
0(
0'
0#
0&
#425000
b11 "
19
1*
1C
0A
#430000
b1 "
0!
0:
0*
08
0E
0C
#435000
b0 "
b10 "
09
1:
1*
1E
1A
#440000
1!
b11 "
b1 "
19
0:
0*
18
0E
0A
0D
1B
05
0J
0G
0%
1I
1C
1E
13
11
17
14
1'
1)
1#
1&
#445000
0!
b0 "
b10 "
09
1:
1*
08
0C
1?
#450000
b0 "
0:
0*
1A
0?
#455000
b1 "
19
1*
1C
0A
#465000
1!
b11 "
b10 "
09
1:
0*
18
0C
1?
1D
0B
15
1J
1G
1%
0I
1A
0?
03
01
07
04
0'
0)
0#
0&
#470000
0!
b11 "
19
1*
08
1C
0A
#475000
1!
0*
18
#480000
b1 "
b0 "
0!
09
0:
1*
08
#485000
b1 "
1!
19
0*
18
0E
0C
#490000
b0 "
0!
09
1*
08
1E
1C
#500000
b10 "
b11 "
19
1:
0*
#505000
b1 "
0:
1*
0E
0C
#510000
1!
b11 "
1:
0*
18
1E
1C
0F
0D
0J
0E
0C
1I
1H
12
13
17
14
1(
1'
1#
1&
#515000
b10 "
0!
b0 "
09
0:
1*
08
#520000
b1 "
19
0*
#525000
1!
b0 "
09
1*
18
#530000
b1 "
19
0*
#540000
b11 "
b10 "
09
1:
1*
1E
1C
#545000
0!
b11 "
19
0*
08
0E
0C
#550000
b1 "
0:
1*
#555000
b0 "
09
0*
#560000
b10 "
1:
1*
1E
1C
#565000
b11 "
19
0*
0E
0C
#570000
b10 "
09
1*
1E
1C
#575000
1!
b0 "
0:
0*
18
0E
0C
1F
1D
1J
1E
1C
0I
0H
02
03
07
04
0(
0'
0#
0&
#580000
b1 "
19
1*
0E
0C
#585000
0!
0*
08
#590000
b11 "
b10 "
09
1:
1*
1E
1A
#595000
1!
b0 "
b1 "
19
0:
0*
18
0E
0A
0D
1B
05
0J
0G
0%
1I
1C
1E
13
11
17
14
1'
1)
1#
1&
#600000
b0 "
09
1*
0C
1A
#605000
0!
b10 "
1:
0*
08
0A
1?
#615000
b11 "
1!
19
1*
18
1A
0?
0B
1@
15
1%
0A
1?
0I
03
0'
#620000
b1 "
b0 "
09
0:
0*
#625000
b1 "
19
1*
1A
0?
#630000
b11 "
1:
0*
0A
1?
#635000
0!
b10 "
b0 "
09
0:
1*
08
#640000
1!
b1 "
19
0*
18
1A
0?
#655000
0!
b0 "
09
1*
08
0A
1?
#660000
b10 "
1:
0*
0?
1=
#665000
1!
b0 "
0:
1*
18
1?
0=
0@
1>
1J
1H
0?
1=
12
07
04
1(
0#
0&
#670000
b1 "
19
0*
1?
0=
#675000
0!
b11 "
1:
1*
08
0?
1=
#680000
b10 "
b0 "
09
0:
0*
#690000
b1 "
19
1*
1?
0=
#695000
1!
b11 "
1:
0*
18
0?
1=
1@
0>
0J
0H
1?
0=
02
17
14
0(
1#
1&
#705000
b10 "
0!
09
1*
08
0?
1=
#710000
1!
0*
18
0@
1>
1J
1H
0=
1;
12
07
04
1(
0#
0&
#715000
0!
1*
08
#720000
b0 "
0:
0*
1=
0;
#725000
b1 "
1!
19
1*
18
1?
0=
#730000
b11 "
1:
0*
0?
1=
#735000
b10 "
0!
09
1*
08
0=
1;
#740000
b0 "
b1 "
1!
19
0:
0*
18
1?
0;
0>
1<
06
0J
0$
1=
0?
17
14
1#
1&
#745000
b11 "
b10 "
09
1:
1*
0=
1;
#750000
0!
b0 "
0:
0*
08
#755000
1!
1*
18
#765000
b1 "
b11 "
19
1:
0*
#770000
0!
1*
08
#775000
b10 "
09
0*
#780000
b0 "
1!
0:
1*
18
#785000
b1 "
b11 "
0!
19
1:
0*
08
#790000
b10 "
b0 "
1!
09
0:
1*
18
#795000
b1 "
b11 "
19
1:
0*
#800000
0!
1*
08
#805000
b10 "
b0 "
09
0:
0*
#810000
1!
b10 "
1:
1*
18
#815000
b0 "
0:
0*
#825000
b1 "
19
1*
1=
0;
#830000
0!
b11 "
b10 "
09
1:
0*
08
0=
1;
#835000
1!
b0 "
b1 "
19
0:
1*
18
1=
0;
#840000
0!
b11 "
b10 "
09
1:
0*
08
0=
1;
#845000
1!
b0 "
0:
1*
18
#850000
0!
b10 "
1:
0*
08
#855000
1!
1*
18
#865000
b11 "
b1 "
19
0:
0*
1=
0;
#875000
0!
1*
08
#880000
b11 "
1!
1:
0*
18
0=
1;
1>
0<
16
1J
1$
1=
0;
07
04
0#
0&
#885000
b10 "
b0 "
09
0:
1*
#895000
0!
b10 "
1:
0*
08
0=
1;
#900000
1!
1*
18
0>
1<
06
0J
0$
17
14
1#
1&
#915000
b11 "
b1 "
0!
19
0:
0*
08
1=
0;
#920000
b0 "
09
1*
0=
1;
#925000
b10 "
1!
1:
0*
18
#935000
b11 "
19
1*
#940000
b10 "
09
0*
#945000
b11 "
19
1*
#950000
b10 "
09
0*
#960000
0!
b11 "
19
1*
08
#965000
1!
0*
18
#970000
b1 "
b0 "
0!
09
0:
1*
08
#975000
b10 "
1:
0*
#985000
b11 "
1!
19
1*
18
#990000
0!
0*
08
#995000
b1 "
b0 "
1!
09
0:
1*
18
