Código_Maq_Moore/Maq_Estado/simulation/qsim/maq_estado.msim.vcd
$comment
	File created using the following command:
		vcd file maq_estado.msim.vcd -direction
$end
$date
	Wed Jun 10 20:02:52 2020
$end
$version
	ModelSim Version 10.3d
$end
$timescale
	1ps
$end

$scope module maq_estado_vlg_vec_tst $end
$var reg 1 ! ck $end
$var reg 1 " rst $end
$var wire 1 # q [1] $end
$var wire 1 $ q [0] $end
$var wire 1 % sampler $end

$scope module i1 $end
$var wire 1 & gnd $end
$var wire 1 ' vcc $end
$var wire 1 ( unknown $end
$var tri1 1 ) devclrn $end
$var tri1 1 * devpor $end
$var tri1 1 + devoe $end
$var wire 1 , q[0]~output_o $end
$var wire 1 - q[1]~output_o $end
$var wire 1 . ck~input_o $end
$var wire 1 / rst~input_o $end
$var wire 1 0 q[1]~reg0_q $end
$var wire 1 1 q[0]~0_combout $end
$var wire 1 2 q[0]~reg0_q $end
$upscope $end
$upscope $end
$enddefinitions $end
#0
$dumpvars
1!
0"
0$
0#
x%
0&
1'
x(
1)
1*
1+
0,
0-
1.
0/
00
11
02
$end
#5000
0!
1"
1/
0%
0.
#10000
0"
0/
1%
#25000
1"
1/
0%
#30000
0"
0/
1%
#45000
1!
0%
1.
12
1,
1$
#50000
1"
1/
1%
02
0,
0$
#55000
0!
0"
0/
0%
0.
#65000
1!
1"
1/
1%
1.
#70000
0!
0%
0.
#80000
1!
1%
1.
#85000
0"
0/
0%
#90000
1"
1/
1%
#95000
0!
0%
0.
#100000
1!
1%
1.
#105000
0!
0%
0.
#110000
0"
0/
1%
#115000
1!
0%
1.
12
1,
1$
#135000
0!
1%
0.
#140000
1!
0%
1.
10
1-
1#
01
#150000
1"
0!
1/
1%
0.
00
02
0,
0-
0$
0#
11
#155000
0"
1!
0/
0%
1.
12
1,
1$
#165000
0!
1%
0.
#170000
1"
1!
1/
0%
1.
02
0,
0$
#175000
0"
0!
0/
1%
0.
#180000
1!
0%
1.
12
1,
1$
#185000
0!
1%
0.
#190000
1"
1!
1/
0%
1.
02
0,
0$
#195000
0"
0/
1%
#200000
1"
1/
0%
#205000
0!
1%
0.
#215000
0"
1!
0/
0%
1.
12
1,
1$
#220000
0!
1%
0.
#235000
1"
1!
1/
0%
1.
02
0,
0$
#240000
0"
0/
1%
#255000
1"
1/
0%
#260000
0!
0"
0/
1%
0.
#265000
1!
1"
1/
0%
1.
#270000
0!
0"
0/
1%
0.
#285000
1!
0%
1.
12
1,
1$
#290000
1"
0!
1/
1%
0.
02
0,
0$
#295000
0"
1!
0/
0%
1.
12
1,
1$
#300000
1"
1/
1%
02
0,
0$
#305000
0!
0%
0.
#310000
0"
0/
1%
#315000
1!
1"
1/
0%
1.
#320000
0!
1%
0.
#325000
0"
0/
0%
#330000
1"
1/
1%
#335000
1!
0"
0/
0%
1.
12
1,
1$
#350000
0!
1%
0.
#365000
1"
1/
0%
02
0,
0$
#370000
1!
1%
1.
#375000
0"
0!
0/
0%
0.
#380000
1"
1/
1%
#385000
0"
0/
0%
#390000
1!
1"
1/
1%
1.
#395000
0!
0"
0/
0%
0.
#405000
1!
1"
1/
1%
1.
#425000
0!
0%
0.
#430000
0"
1!
0/
1%
1.
12
1,
1$
#435000
0!
0%
0.
#440000
1"
1/
1%
02
0,
0$
#445000
0"
0/
0%
#450000
1!
1"
1/
1%
1.
#455000
0!
0%
0.
#460000
0"
0/
1%
#465000
1!
0%
1.
12
1,
1$
#470000
1"
1/
1%
02
0,
0$
#490000
0"
0/
0%
#495000
1"
1/
1%
#500000
0!
0"
0/
0%
0.
#505000
1!
1%
1.
12
1,
1$
#510000
1"
0!
1/
0%
0.
02
0,
0$
#515000
1!
1%
1.
#520000
0!
0%
0.
#525000
0"
0/
1%
#530000
1"
1/
0%
#535000
1!
1%
1.
#545000
0!
0%
0.
#550000
0"
1!
0/
1%
1.
12
1,
1$
#555000
1"
0!
1/
0%
0.
02
0,
0$
#560000
0"
0/
1%
#570000
1!
1"
1/
0%
1.
#575000
0!
0"
0/
1%
0.
#580000
1!
1"
1/
0%
1.
#585000
0"
0/
1%
#590000
1"
1/
0%
#600000
0!
1%
0.
#605000
0"
0/
0%
#620000
1!
1"
1/
1%
1.
#625000
0!
0"
0/
0%
0.
#630000
1"
1/
1%
#635000
0"
0/
0%
#640000
1"
1/
1%
#650000
0"
0/
0%
#655000
1"
1/
1%
#660000
1!
0%
1.
#665000
0"
0!
0/
1%
0.
#670000
1"
1/
0%
#680000
0"
0/
1%
#685000
1!
1"
1/
0%
1.
#690000
0!
0"
0/
1%
0.
#695000
1!
0%
1.
12
1,
1$
#700000
0!
1%
0.
#705000
1!
0%
1.
10
1-
1#
01
#710000
0!
1%
0.
#715000
1"
1/
0%
00
02
0,
0-
0$
0#
11
#720000
1!
1%
1.
#725000
0!
0%
0.
#730000
0"
1!
0/
1%
1.
12
1,
1$
#735000
1"
0!
1/
0%
0.
02
0,
0$
#740000
1!
1%
1.
#745000
0"
0/
0%
#750000
0!
1%
0.
#755000
1"
1!
1/
0%
1.
#760000
0!
1%
0.
#765000
0"
0/
0%
#770000
1"
1/
1%
#775000
1!
0%
1.
#780000
0"
0!
0/
1%
0.
#785000
1"
1/
0%
#790000
1!
1%
1.
#795000
0!
0%
0.
#800000
0"
0/
1%
#810000
1!
0%
1.
12
1,
1$
#815000
1"
1/
1%
02
0,
0$
#820000
0!
0%
0.
#825000
0"
0/
1%
#835000
1!
1"
1/
0%
1.
#840000
0!
0"
0/
1%
0.
#845000
1!
1"
1/
0%
1.
#855000
0"
0/
1%
#860000
0!
0%
0.
#875000
1!
1%
1.
12
1,
1$
#880000
1"
0!
1/
0%
0.
02
0,
0$
#885000
0"
1!
0/
1%
1.
12
1,
1$
#895000
0!
0%
0.
#905000
1"
1!
1/
1%
1.
02
0,
0$
#910000
0"
0!
0/
0%
0.
#915000
1!
1%
1.
12
1,
1$
#920000
1"
1/
0%
02
0,
0$
#925000
0"
0/
1%
#935000
1"
1/
0%
#945000
0!
1%
0.
#955000
1!
0%
1.
#960000
0"
0!
0/
1%
0.
#965000
1!
0%
1.
12
1,
1$
#970000
0!
1%
0.
#980000
1"
1/
0%
02
0,
0$
#985000
1!
1%
1.
#990000
0!
0%
0.
#995000
0"
1!
0/
1%
1.
12
1,
1$
