Código_concorrente/Covid_V3/simulation/qsim/covid_v3.msim.vcd
$comment
	File created using the following command:
		vcd file covid_v3.msim.vcd -direction
$end
$date
	Sat Jun 06 17:52:37 2020
$end
$version
	ModelSim Version 10.3d
$end
$timescale
	1ps
$end

$scope module covid_v3_vlg_vec_tst $end
$var reg 1 ! a $end
$var reg 1 " b $end
$var reg 1 # c $end
$var reg 1 $ d $end
$var wire 1 % led0 $end
$var wire 1 & led1 $end
$var wire 1 ' led2 $end
$var wire 1 ( sampler $end

$scope module i1 $end
$var wire 1 ) gnd $end
$var wire 1 * vcc $end
$var wire 1 + unknown $end
$var tri1 1 , devclrn $end
$var tri1 1 - devpor $end
$var tri1 1 . devoe $end
$var wire 1 / led0~output_o $end
$var wire 1 0 led1~output_o $end
$var wire 1 1 led2~output_o $end
$var wire 1 2 a~input_o $end
$var wire 1 3 b~input_o $end
$var wire 1 4 c~input_o $end
$var wire 1 5 d~input_o $end
$var wire 1 6 led0~0_combout $end
$var wire 1 7 led1~0_combout $end
$var wire 1 8 led2~0_combout $end
$upscope $end
$upscope $end
$enddefinitions $end
#0
$dumpvars
0!
1"
1#
1$
0%
0&
0'
x(
0)
1*
x+
1,
1-
1.
0/
00
01
02
13
14
15
16
07
08
$end
#5000
1!
0"
0#
0$
12
03
04
05
0(
17
10
1&
#30000
0!
1"
1#
1$
02
13
14
15
1(
07
00
0&
#35000
0"
0#
0$
03
04
05
0(
06
1/
1%
#45000
1!
1"
1#
1$
12
13
14
15
1(
16
18
11
0/
1'
0%
#50000
0!
02
0(
08
01
0'
#55000
0"
0#
0$
1!
03
04
05
12
1(
17
10
1&
#60000
1"
1#
1$
0!
13
14
15
02
0(
07
00
0&
#65000
0"
0#
0$
03
04
05
1(
06
1/
1%
#70000
1!
12
0(
16
17
10
0/
1&
0%
#75000
1"
1#
1$
0!
13
14
15
02
1(
07
00
0&
#80000
1!
12
0(
18
11
1'
#90000
0!
02
1(
08
01
0'
#95000
0"
0#
0$
1!
03
04
05
12
0(
17
10
1&
#100000
0!
02
1(
06
07
00
1/
0&
1%
#105000
1"
1#
1$
13
14
15
0(
16
0/
0%
#115000
1!
12
1(
18
11
1'
#120000
0"
0#
0$
0!
03
04
05
02
0(
06
08
01
1/
0'
1%
#125000
1!
12
1(
16
17
10
0/
1&
0%
#130000
1"
1#
1$
0!
13
14
15
02
0(
07
00
0&
#135000
0"
0#
0$
03
04
05
1(
06
1/
1%
#140000
1!
1"
1#
1$
12
13
14
15
0(
16
18
11
0/
1'
0%
#145000
0"
0#
0$
03
04
05
1(
08
17
10
01
1&
0'
#150000
0!
1"
1#
1$
02
13
14
15
0(
07
00
0&
#155000
1!
0"
0#
0$
12
03
04
05
1(
17
10
1&
#160000
1"
1#
1$
13
14
15
0(
18
07
00
11
0&
1'
#165000
0!
0"
0#
0$
02
03
04
05
1(
06
08
01
1/
0'
1%
#170000
1"
1#
1$
13
14
15
0(
16
0/
0%
#180000
1!
12
1(
18
11
1'
#185000
0!
02
0(
08
01
0'
#190000
0"
0#
0$
1!
03
04
05
12
1(
17
10
1&
#195000
1"
1#
1$
13
14
15
0(
18
07
00
11
0&
1'
#200000
0"
0#
0$
03
04
05
1(
08
17
10
01
1&
0'
#210000
0!
02
0(
06
07
00
1/
0&
1%
#215000
1"
1#
1$
13
14
15
1(
16
0/
0%
#220000
0"
0#
0$
03
04
05
0(
06
1/
1%
#230000
1!
1"
1#
1$
12
13
14
15
1(
16
18
11
0/
1'
0%
#235000
0"
0#
0$
03
04
05
0(
08
17
10
01
1&
0'
#240000
0!
02
1(
06
07
00
1/
0&
1%
#245000
1"
1#
1$
1!
13
14
15
12
0(
16
18
11
0/
1'
0%
#260000
0!
02
1(
08
01
0'
#265000
1!
12
0(
18
11
1'
#270000
0"
0#
0$
03
04
05
1(
08
17
10
01
1&
0'
#275000
0!
1"
1#
1$
02
13
14
15
0(
07
00
0&
#285000
1!
12
1(
18
11
1'
#290000
0!
02
0(
08
01
0'
#300000
0"
0#
0$
1!
03
04
05
12
1(
17
10
1&
#305000
1"
1#
1$
13
14
15
0(
18
07
00
11
0&
1'
#320000
0"
0#
0$
03
04
05
1(
08
17
10
01
1&
0'
#325000
0!
02
0(
06
07
00
1/
0&
1%
#330000
1"
1#
1$
13
14
15
1(
16
0/
0%
#335000
1!
12
0(
18
11
1'
#340000
0!
02
1(
08
01
0'
#345000
0"
0#
0$
03
04
05
0(
06
1/
1%
#350000
1"
1#
1$
13
14
15
1(
16
0/
0%
#355000
0"
0#
0$
03
04
05
0(
06
1/
1%
#360000
1!
12
1(
16
17
10
0/
1&
0%
#365000
0!
02
0(
06
07
00
1/
0&
1%
#370000
1"
1#
1$
1!
13
14
15
12
1(
16
18
11
0/
1'
0%
#375000
0!
02
0(
08
01
0'
#380000
0"
0#
0$
03
04
05
1(
06
1/
1%
#390000
1!
12
0(
16
17
10
0/
1&
0%
#395000
1"
1#
1$
13
14
15
1(
18
07
00
11
0&
1'
#400000
0!
02
0(
08
01
0'
#405000
0"
0#
0$
1!
03
04
05
12
1(
17
10
1&
#410000
1"
1#
1$
13
14
15
0(
18
07
00
11
0&
1'
#415000
0!
0"
0#
0$
02
03
04
05
1(
06
08
01
1/
0'
1%
#420000
1"
1#
1$
13
14
15
0(
16
0/
0%
#425000
1!
0"
0#
0$
12
03
04
05
1(
17
10
1&
#430000
0!
02
0(
06
07
00
1/
0&
1%
#435000
1"
1#
1$
13
14
15
1(
16
0/
0%
#450000
1!
12
0(
18
11
1'
#460000
0!
02
1(
08
01
0'
#465000
0"
0#
0$
03
04
05
0(
06
1/
1%
#470000
1!
1"
1#
1$
12
13
14
15
1(
16
18
11
0/
1'
0%
#475000
0!
02
0(
08
01
0'
#480000
0"
0#
0$
03
04
05
1(
06
1/
1%
#485000
1!
12
0(
16
17
10
0/
1&
0%
#490000
1"
1#
1$
13
14
15
1(
18
07
00
11
0&
1'
#495000
0"
0#
0$
03
04
05
0(
08
17
10
01
1&
0'
#505000
1"
1#
1$
13
14
15
1(
18
07
00
11
0&
1'
#510000
0!
02
0(
08
01
0'
#515000
1!
12
1(
18
11
1'
#520000
0"
0#
0$
0!
03
04
05
02
0(
06
08
01
1/
0'
1%
#525000
1"
1#
1$
1!
13
14
15
12
1(
16
18
11
0/
1'
0%
#530000
0"
0#
0$
0!
03
04
05
02
0(
06
08
01
1/
0'
1%
#545000
1"
1#
1$
1!
13
14
15
12
1(
16
18
11
0/
1'
0%
#550000
0"
0#
0$
0!
03
04
05
02
0(
06
08
01
1/
0'
1%
#555000
1"
1#
1$
1!
13
14
15
12
1(
16
18
11
0/
1'
0%
#560000
0"
0#
0$
0!
03
04
05
02
0(
06
08
01
1/
0'
1%
#565000
1"
1#
1$
13
14
15
1(
16
0/
0%
#570000
1!
0"
0#
0$
12
03
04
05
0(
17
10
1&
#580000
0!
02
1(
06
07
00
1/
0&
1%
#585000
1"
1#
1$
13
14
15
0(
16
0/
0%
#590000
0"
0#
0$
03
04
05
1(
06
1/
1%
#595000
1!
12
0(
16
17
10
0/
1&
0%
#615000
0!
02
1(
06
07
00
1/
0&
1%
#620000
1"
1#
1$
13
14
15
0(
16
0/
0%
#625000
1!
0"
0#
0$
12
03
04
05
1(
17
10
1&
#635000
0!
02
0(
06
07
00
1/
0&
1%
#640000
1"
1#
1$
1!
13
14
15
12
1(
16
18
11
0/
1'
0%
#645000
0!
02
0(
08
01
0'
#650000
0"
0#
0$
1!
03
04
05
12
1(
17
10
1&
#655000
1"
1#
1$
13
14
15
0(
18
07
00
11
0&
1'
#660000
0"
0#
0$
03
04
05
1(
08
17
10
01
1&
0'
#665000
0!
02
0(
06
07
00
1/
0&
1%
#670000
1"
1#
1$
1!
13
14
15
12
1(
16
18
11
0/
1'
0%
#675000
0!
02
0(
08
01
0'
#680000
0"
0#
0$
03
04
05
1(
06
1/
1%
#685000
1"
1#
1$
13
14
15
0(
16
0/
0%
#690000
1!
0"
0#
0$
12
03
04
05
1(
17
10
1&
#695000
1"
1#
1$
13
14
15
0(
18
07
00
11
0&
1'
#700000
0!
0"
0#
0$
02
03
04
05
1(
06
08
01
1/
0'
1%
#705000
1!
1"
1#
1$
12
13
14
15
0(
16
18
11
0/
1'
0%
#710000
0!
0"
0#
0$
02
03
04
05
1(
06
08
01
1/
0'
1%
#715000
1"
1#
1$
13
14
15
0(
16
0/
0%
#725000
0"
0#
0$
03
04
05
1(
06
1/
1%
#730000
1!
12
0(
16
17
10
0/
1&
0%
#735000
1"
1#
1$
0!
13
14
15
02
1(
07
00
0&
#740000
0"
0#
0$
03
04
05
0(
06
1/
1%
#745000
1!
1"
1#
1$
12
13
14
15
1(
16
18
11
0/
1'
0%
#750000
0"
0#
0$
03
04
05
0(
08
17
10
01
1&
0'
#755000
0!
1"
1#
1$
02
13
14
15
1(
07
00
0&
#760000
0"
0#
0$
03
04
05
0(
06
1/
1%
#785000
1!
1"
1#
1$
12
13
14
15
1(
16
18
11
0/
1'
0%
#790000
0!
0"
0#
0$
02
03
04
05
0(
06
08
01
1/
0'
1%
#800000
1!
12
1(
16
17
10
0/
1&
0%
#805000
1"
1#
1$
13
14
15
0(
18
07
00
11
0&
1'
#810000
0!
02
1(
08
01
0'
#830000
0"
0#
0$
1!
03
04
05
12
0(
17
10
1&
#835000
1"
1#
1$
13
14
15
1(
18
07
00
11
0&
1'
#840000
0!
02
0(
08
01
0'
#865000
0"
0#
0$
1!
03
04
05
12
1(
17
10
1&
#870000
1"
1#
1$
13
14
15
0(
18
07
00
11
0&
1'
#885000
0!
02
1(
08
01
0'
#890000
0"
0#
0$
1!
03
04
05
12
0(
17
10
1&
#895000
1"
1#
1$
0!
13
14
15
02
1(
07
00
0&
#905000
0"
0#
0$
1!
03
04
05
12
0(
17
10
1&
#915000
0!
02
1(
06
07
00
1/
0&
1%
#925000
1"
1#
1$
13
14
15
0(
16
0/
0%
#935000
0"
0#
0$
03
04
05
1(
06
1/
1%
#940000
1!
12
0(
16
17
10
0/
1&
0%
#945000
1"
1#
1$
0!
13
14
15
02
1(
07
00
0&
#950000
0"
0#
0$
03
04
05
0(
06
1/
1%
#955000
1"
1#
1$
13
14
15
1(
16
0/
0%
#965000
1!
0"
0#
0$
12
03
04
05
0(
17
10
1&
#970000
0!
1"
1#
1$
02
13
14
15
1(
07
00
0&
#975000
0"
0#
0$
03
04
05
0(
06
1/
1%
#985000
1!
1"
1#
1$
12
13
14
15
1(
16
18
11
0/
1'
0%
#990000
0"
0#
0$
03
04
05
0(
08
17
10
01
1&
0'
#995000
1"
1#
1$
13
14
15
1(
18
07
00
11
0&
1'
