Código_concorrente/Encriptador/simulation/qsim/encript.msim.vcd
$comment
	File created using the following command:
		vcd file encript.msim.vcd -direction
$end
$date
	Thu Jun 04 08:06:05 2020
$end
$version
	ModelSim Version 10.3d
$end
$timescale
	1ps
$end

$scope module encript_vlg_vec_tst $end
$var reg 3 ! palavra [2:0] $end
$var wire 1 " saida $end
$var wire 1 # sampler $end

$scope module i1 $end
$var wire 1 $ gnd $end
$var wire 1 % vcc $end
$var wire 1 & unknown $end
$var tri1 1 ' devclrn $end
$var tri1 1 ( devpor $end
$var tri1 1 ) devoe $end
$var wire 1 * ~QUARTUS_CREATED_GND~I_combout $end
$var wire 1 + palavra[0]~input_o $end
$var wire 1 , palavra[1]~input_o $end
$var wire 1 - palavra[2]~input_o $end
$var wire 1 . saida~0_combout $end
$upscope $end
$upscope $end
$enddefinitions $end
#0
$dumpvars
b111 !
1"
x#
0$
1%
x&
1'
1(
1)
0*
1+
1,
1-
1.
$end
#5000
b110 !
0+
0#
#10000
b10 !
b11 !
1+
0-
1#
#15000
b1 !
b101 !
b100 !
0+
0,
1-
0#
#20000
b0 !
b1 !
1+
0-
1#
#25000
b101 !
b100 !
0+
1-
0#
#30000
b0 !
0-
1#
0.
0"
#35000
b10 !
b11 !
b111 !
1+
1,
1-
0#
1.
1"
#40000
b101 !
b100 !
0+
0,
1#
#45000
b110 !
1,
0#
#50000
b100 !
0,
1#
#55000
b0 !
0-
0#
0.
0"
#60000
b10 !
b110 !
1,
1-
1#
1.
1"
#65000
b10 !
0-
0#
#70000
b0 !
0,
1#
0.
0"
#75000
b1 !
b101 !
1+
1-
0#
1.
1"
#90000
b111 !
b11 !
1,
0-
1#
#95000
b1 !
b101 !
0,
1-
0#
#100000
b111 !
b11 !
1,
0-
1#
#105000
b10 !
b0 !
b100 !
0+
0,
1-
0#
#110000
b0 !
0-
1#
0.
0"
#120000
b10 !
b110 !
1,
1-
0#
1.
1"
#125000
b111 !
b101 !
b1 !
1+
0,
0-
1#
#135000
b11 !
1,
0#
#140000
b10 !
b110 !
b100 !
0+
0,
1-
1#
#155000
b101 !
1+
0#
#165000
b100 !
0+
1#
#170000
b101 !
1+
0#
#175000
b1 !
b0 !
0+
0-
1#
0.
0"
#185000
b10 !
b110 !
1,
1-
0#
1.
1"
#195000
b100 !
0,
1#
#200000
b110 !
1,
0#
#205000
b10 !
0-
1#
#210000
b11 !
b111 !
1+
1-
0#
#215000
b11 !
0-
1#
#220000
b1 !
b101 !
0,
1-
0#
#225000
b111 !
1,
1#
#230000
b11 !
b1 !
0,
0-
0#
#235000
b0 !
b10 !
0+
1,
1#
#240000
b110 !
b111 !
1+
1-
0#
#245000
b11 !
b10 !
0+
0-
1#
#250000
b0 !
b1 !
1+
0,
0#
#255000
b0 !
0+
1#
0.
0"
#260000
b100 !
1-
0#
1.
1"
#265000
b0 !
0-
1#
0.
0"
#270000
b1 !
b101 !
1+
1-
0#
1.
1"
#275000
b111 !
b110 !
0+
1,
1#
#290000
b10 !
b0 !
b1 !
1+
0,
0-
0#
#295000
b101 !
b111 !
1,
1-
1#
#300000
b110 !
b10 !
0+
0-
0#
#305000
b0 !
b1 !
b101 !
1+
0,
1-
1#
#310000
b1 !
0-
0#
#315000
b11 !
1,
1#
#320000
b111 !
b101 !
0,
1-
0#
#325000
b100 !
b0 !
0+
0-
1#
0.
0"
#335000
b100 !
1-
0#
1.
1"
#340000
b101 !
b1 !
1+
0-
1#
#350000
b11 !
b111 !
1,
1-
0#
#355000
b101 !
b1 !
0,
0-
1#
#360000
b101 !
1-
0#
#365000
b100 !
b110 !
0+
1,
1#
#370000
b111 !
1+
0#
#375000
b101 !
0,
1#
#380000
b100 !
b110 !
0+
1,
0#
#385000
b100 !
0,
1#
#400000
b110 !
1,
0#
#405000
b10 !
0-
1#
#410000
b110 !
1-
0#
#415000
b100 !
b0 !
0,
0-
1#
0.
0"
#420000
b10 !
1,
0#
1.
1"
#425000
b11 !
b111 !
b101 !
1+
0,
1-
1#
#430000
b1 !
0-
0#
#435000
b11 !
1,
1#
#440000
b10 !
b0 !
0+
0,
0#
0.
0"
#450000
b10 !
1,
1#
1.
1"
#455000
b11 !
b1 !
1+
0,
0#
#460000
b0 !
b10 !
0+
1,
1#
#465000
b0 !
0,
0#
0.
0"
#470000
b100 !
b101 !
1+
1-
1#
1.
1"
#475000
b111 !
b110 !
0+
1,
0#
#480000
b100 !
b101 !
1+
0,
1#
#485000
b111 !
1,
0#
#490000
b11 !
0-
1#
#495000
b1 !
0,
0#
#500000
b0 !
b100 !
0+
1-
1#
#505000
b101 !
b1 !
1+
0-
0#
#510000
b0 !
0+
1#
0.
0"
#515000
b100 !
b101 !
1+
1-
0#
1.
1"
#520000
b111 !
1,
1#
#525000
b11 !
0-
0#
#530000
b10 !
b110 !
0+
1-
1#
#535000
b100 !
b101 !
b1 !
1+
0,
0-
0#
#540000
b101 !
1-
1#
#550000
b100 !
0+
0#
#555000
b0 !
0-
1#
0.
0"
#560000
b10 !
b11 !
1+
1,
0#
1.
1"
#565000
b1 !
0,
1#
#570000
b101 !
b100 !
b110 !
0+
1,
1-
0#
#575000
b10 !
0-
1#
#580000
b11 !
1+
0#
#585000
b1 !
b0 !
0+
0,
1#
0.
0"
#590000
b10 !
b11 !
1+
1,
0#
1.
1"
#595000
b111 !
1-
1#
#600000
b101 !
b1 !
0,
0-
0#
#605000
b0 !
b10 !
b110 !
0+
1,
1-
1#
#610000
b100 !
b0 !
0,
0-
0#
0.
0"
#615000
b10 !
1,
1#
1.
1"
#620000
b110 !
b100 !
0,
1-
0#
#625000
b101 !
b1 !
1+
0-
1#
#635000
b11 !
b111 !
1,
1-
0#
#645000
b101 !
0,
1#
#650000
b100 !
b0 !
b10 !
0+
1,
0-
0#
#655000
b11 !
b111 !
b101 !
1+
0,
1-
1#
#660000
b100 !
0+
0#
#665000
b110 !
b111 !
1+
1,
1#
#670000
b101 !
0,
0#
#675000
b100 !
b110 !
0+
1,
1#
#680000
b10 !
0-
0#
#685000
b11 !
b111 !
1+
1-
1#
#690000
b110 !
b10 !
0+
0-
0#
#695000
b0 !
0,
1#
0.
0"
#700000
b1 !
1+
0#
1.
1"
#705000
b101 !
b111 !
1,
1-
1#
#710000
b11 !
b1 !
0,
0-
0#
#715000
b0 !
b10 !
0+
1,
1#
#725000
b110 !
b111 !
1+
1-
0#
#730000
b101 !
b1 !
0,
0-
1#
#735000
b11 !
b111 !
1,
1-
0#
#740000
b101 !
b1 !
0,
0-
1#
#745000
b101 !
1-
0#
#750000
b100 !
b110 !
b10 !
0+
1,
0-
1#
#755000
b11 !
b111 !
1+
1-
0#
#760000
b101 !
b1 !
0,
0-
1#
#765000
b0 !
0+
0#
0.
0"
#770000
b10 !
b110 !
b111 !
1+
1,
1-
1#
1.
1"
#775000
b101 !
b1 !
0,
0-
0#
#780000
b101 !
1-
1#
#790000
b111 !
1,
0#
#795000
b101 !
0,
1#
#800000
b111 !
1,
0#
#805000
b110 !
b10 !
b0 !
0+
0,
0-
1#
0.
0"
#810000
b1 !
b101 !
1+
1-
0#
1.
1"
#815000
b1 !
0-
1#
#820000
b11 !
b10 !
b110 !
0+
1,
1-
0#
#825000
b111 !
1+
1#
#830000
b110 !
0+
0#
#835000
b100 !
0,
1#
#840000
b101 !
1+
0#
#845000
b1 !
b11 !
1,
0-
1#
#855000
b10 !
b110 !
0+
1-
0#
#860000
b100 !
b101 !
1+
0,
1#
#865000
b111 !
b110 !
0+
1,
0#
#870000
b10 !
b11 !
1+
0-
1#
#880000
b1 !
b101 !
0,
1-
0#
#885000
b100 !
b110 !
0+
1,
1#
#890000
b111 !
b101 !
1+
0,
0#
#895000
b1 !
b0 !
b10 !
0+
1,
0-
1#
#900000
b11 !
b1 !
1+
0,
0#
#915000
b101 !
b100 !
b110 !
0+
1,
1-
1#
#925000
b100 !
0,
0#
#930000
b0 !
0-
1#
0.
0"
#935000
b1 !
b101 !
1+
1-
0#
1.
1"
#940000
b111 !
b110 !
0+
1,
1#
#945000
b100 !
b101 !
1+
0,
0#
#950000
b111 !
1,
1#
#955000
b11 !
0-
0#
#965000
b111 !
1-
1#
#970000
b101 !
0,
0#
#975000
b100 !
b0 !
0+
0-
1#
0.
0"
#985000
b1 !
1+
0#
1.
1"
#990000
b0 !
0+
1#
0.
0"
#995000
b10 !
b110 !
1,
1-
0#
1.
1"
