Moore_perp/simulation/qsim/moore_perp.msim.vcd
$comment
	File created using the following command:
		vcd file moore_perp.msim.vcd -direction
$end
$date
	Wed Jun 10 20:27:16 2020
$end
$version
	ModelSim Version 10.3d
$end
$timescale
	1ps
$end

$scope module moore_perp_vlg_vec_tst $end
$var reg 1 ! clk $end
$var reg 1 " rst $end
$var wire 1 # s0 $end
$var wire 1 $ s1 $end
$var wire 1 % s2 $end
$var wire 1 & sampler $end

$scope module i1 $end
$var wire 1 ' gnd $end
$var wire 1 ( vcc $end
$var wire 1 ) unknown $end
$var tri1 1 * devclrn $end
$var tri1 1 + devpor $end
$var tri1 1 , devoe $end
$var wire 1 - s0~output_o $end
$var wire 1 . s1~output_o $end
$var wire 1 / s2~output_o $end
$var wire 1 0 clk~input_o $end
$var wire 1 1 stateMoore_reg.one~0_combout $end
$var wire 1 2 rst~input_o $end
$var wire 1 3 stateMoore_reg.one~q $end
$var wire 1 4 stateMoore_reg.two~q $end
$var wire 1 5 stateMoore_reg.zero~0_combout $end
$var wire 1 6 stateMoore_reg.zero~q $end
$upscope $end
$upscope $end
$enddefinitions $end
#0
$dumpvars
1!
0"
1#
0$
0%
x&
0'
1(
x)
1*
1+
1,
1-
0.
0/
10
11
02
03
04
15
06
$end
#10000
0!
0&
00
#20000
1!
1&
10
16
13
1.
0-
1$
0#
01
#35000
0!
0&
00
#45000
1!
1&
10
14
03
0.
1/
0$
1%
05
#50000
0!
0&
00
#55000
1!
1&
10
06
04
0/
1-
0%
1#
11
15
#65000
0!
0&
00
#70000
1!
1&
10
16
13
1.
0-
1$
0#
01
#80000
0!
0&
00
#95000
1!
1&
10
14
03
0.
1/
0$
1%
05
#100000
0!
0&
00
#105000
1!
1&
10
06
04
0/
1-
0%
1#
11
15
#120000
0!
0&
00
#135000
1!
1&
10
16
13
1.
0-
1$
0#
01
#145000
0!
0&
00
#150000
1!
1&
10
14
03
0.
1/
0$
1%
05
#165000
0!
0&
00
#175000
1!
1&
10
06
04
0/
1-
0%
1#
11
15
#180000
0!
0&
00
#195000
1!
1&
10
16
13
1.
0-
1$
0#
01
#210000
0!
0&
00
#225000
1!
1&
10
14
03
0.
1/
0$
1%
05
#240000
0!
0&
00
#245000
1!
1&
10
06
04
0/
1-
0%
1#
11
15
#260000
0!
0&
00
#270000
1!
1&
10
16
13
1.
0-
1$
0#
01
#285000
0!
0&
00
#290000
1!
1&
10
14
03
0.
1/
0$
1%
05
#295000
0!
0&
00
#300000
1!
1&
10
06
04
0/
1-
0%
1#
11
15
#310000
0!
0&
00
#325000
1!
1&
10
16
13
1.
0-
1$
0#
01
#335000
0!
0&
00
#380000
1!
1&
10
14
03
0.
1/
0$
1%
05
#395000
0!
0&
00
#400000
1!
1&
10
06
04
0/
1-
0%
1#
11
15
#410000
0!
0&
00
#425000
1!
1&
10
16
13
1.
0-
1$
0#
01
#430000
0!
0&
00
#450000
1!
1&
10
14
03
0.
1/
0$
1%
05
#460000
0!
0&
00
#465000
1!
1&
10
06
04
0/
1-
0%
1#
11
15
#485000
0!
0&
00
#500000
1!
1&
10
16
13
1.
0-
1$
0#
01
#525000
0!
0&
00
#545000
1!
1&
10
14
03
0.
1/
0$
1%
05
#550000
0!
0&
00
#560000
1!
1&
10
06
04
0/
1-
0%
1#
11
15
#565000
0!
0&
00
#570000
1!
1&
10
16
13
1.
0-
1$
0#
01
#575000
0!
0&
00
#580000
1!
1&
10
14
03
0.
1/
0$
1%
05
#595000
0!
0&
00
#635000
1!
1&
10
06
04
0/
1-
0%
1#
11
15
#640000
0!
0&
00
#650000
1!
1&
10
16
13
1.
0-
1$
0#
01
#665000
0!
0&
00
#670000
1!
1&
10
14
03
0.
1/
0$
1%
05
#675000
0!
0&
00
#685000
1!
1&
10
06
04
0/
1-
0%
1#
11
15
#690000
0!
0&
00
#705000
1!
1&
10
16
13
1.
0-
1$
0#
01
#710000
0!
0&
00
#715000
1!
1&
10
14
03
0.
1/
0$
1%
05
#725000
0!
0&
00
#740000
1!
1&
10
06
04
0/
1-
0%
1#
11
15
#745000
0!
0&
00
#750000
1!
1&
10
16
13
1.
0-
1$
0#
01
#775000
0!
0&
00
#800000
1!
1&
10
14
03
0.
1/
0$
1%
05
#805000
0!
0&
00
#810000
1!
1&
10
06
04
0/
1-
0%
1#
11
15
#820000
0!
0&
00
#840000
1!
1&
10
16
13
1.
0-
1$
0#
01
#855000
0!
0&
00
#860000
1!
1&
10
14
03
0.
1/
0$
1%
05
#880000
0!
0&
00
#900000
1!
1&
10
06
04
0/
1-
0%
1#
11
15
#910000
0!
0&
00
#915000
1!
1&
10
16
13
1.
0-
1$
0#
01
#920000
0!
0&
00
#940000
1!
1&
10
14
03
0.
1/
0$
1%
05
#945000
0!
0&
00
#950000
1!
1&
10
06
04
0/
1-
0%
1#
11
15
#955000
0!
0&
00
#960000
1!
1&
10
16
13
1.
0-
1$
0#
01
#965000
0!
0&
00
#985000
1!
1&
10
14
03
0.
1/
0$
1%
05
#990000
0!
0&
00
#995000
1!
1&
10
06
04
0/
1-
0%
1#
11
15
