Código_Maq_Moore/UP_Down_Moore/simulation/qsim/up_down.msim.vcd
$comment
	File created using the following command:
		vcd file up_down.msim.vcd -direction
$end
$date
	Wed Jun 10 19:50:22 2020
$end
$version
	ModelSim Version 10.3d
$end
$timescale
	1ps
$end

$scope module up_down_vlg_vec_tst $end
$var reg 1 ! botao $end
$var reg 1 " clk $end
$var reg 1 # rst $end
$var wire 1 $ s0 $end
$var wire 1 % s1 $end
$var wire 1 & sampler $end

$scope module i1 $end
$var wire 1 ' gnd $end
$var wire 1 ( vcc $end
$var wire 1 ) unknown $end
$var tri1 1 * devclrn $end
$var tri1 1 + devpor $end
$var tri1 1 , devoe $end
$var wire 1 - s0~output_o $end
$var wire 1 . s1~output_o $end
$var wire 1 / clk~input_o $end
$var wire 1 0 botao~input_o $end
$var wire 1 1 stateMoore_reg~0_combout $end
$var wire 1 2 rst~input_o $end
$var wire 1 3 stateMoore_reg~q $end
$var wire 1 4 s0$latch~combout $end
$var wire 1 5 s1$latch~combout $end
$upscope $end
$upscope $end
$enddefinitions $end
#0
$dumpvars
1!
1"
0#
1$
0%
x&
0'
1(
x)
1*
1+
1,
1-
0.
1/
10
11
02
03
14
05
$end
#10000
0"
0&
0/
#15000
1"
1&
1/
13
15
04
01
0-
1.
0$
1%
#30000
0"
0&
0/
#40000
1"
1&
1/
03
05
14
11
1-
0.
1$
0%
#45000
0"
0&
0/
#60000
1"
1&
1/
13
15
04
01
0-
1.
0$
1%
#70000
0"
0&
0/
#75000
1"
1&
1/
03
05
14
11
1-
0.
1$
0%
#90000
0"
0&
0/
#105000
1"
1&
1/
13
15
04
01
0-
1.
0$
1%
#115000
0"
0&
0/
#120000
1"
1&
1/
03
05
14
11
1-
0.
1$
0%
#140000
0"
0&
0/
#150000
1"
1&
1/
13
15
04
01
0-
1.
0$
1%
#155000
0"
0&
0/
#160000
1"
1&
1/
03
05
14
11
1-
0.
1$
0%
#180000
0"
0&
0/
#190000
1"
1&
1/
13
15
04
01
0-
1.
0$
1%
#195000
0"
0&
0/
#225000
1"
1&
1/
03
05
14
11
1-
0.
1$
0%
#240000
0"
0&
0/
#245000
1"
1&
1/
13
15
04
01
0-
1.
0$
1%
#250000
0"
0&
0/
#265000
1"
1&
1/
03
05
14
11
1-
0.
1$
0%
#280000
0"
0&
0/
#290000
1"
1&
1/
13
15
04
01
0-
1.
0$
1%
#295000
0"
0&
0/
#305000
1"
1&
1/
03
05
14
11
1-
0.
1$
0%
#315000
0"
0&
0/
#320000
1"
1&
1/
13
15
04
01
0-
1.
0$
1%
#325000
0"
0&
0/
#330000
1"
1&
1/
03
05
14
11
1-
0.
1$
0%
#345000
0"
0&
0/
#355000
1"
1&
1/
13
15
04
01
0-
1.
0$
1%
#375000
0"
0&
0/
#385000
1"
1&
1/
03
05
14
11
1-
0.
1$
0%
#395000
0"
0&
0/
#400000
1"
1&
1/
13
15
04
01
0-
1.
0$
1%
#425000
0"
0&
0/
#435000
1"
1&
1/
03
05
14
11
1-
0.
1$
0%
#450000
0"
0&
0/
#455000
1"
1&
1/
13
15
04
01
0-
1.
0$
1%
#465000
0"
0&
0/
#480000
1"
1&
1/
03
05
14
11
1-
0.
1$
0%
#485000
0"
0&
0/
#490000
1"
1&
1/
13
15
04
01
0-
1.
0$
1%
#495000
0"
0&
0/
#540000
1"
1&
1/
03
05
14
11
1-
0.
1$
0%
#560000
0"
0&
0/
#565000
1"
1&
1/
13
15
04
01
0-
1.
0$
1%
#570000
0"
0&
0/
#575000
1"
1&
1/
03
05
14
11
1-
0.
1$
0%
#595000
0"
0&
0/
#615000
1"
1&
1/
13
15
04
01
0-
1.
0$
1%
#620000
0"
0&
0/
#625000
1"
1&
1/
03
05
14
11
1-
0.
1$
0%
#660000
0"
0&
0/
#665000
1"
1&
1/
13
15
04
01
0-
1.
0$
1%
#675000
0"
0&
0/
#680000
1"
1&
1/
03
05
14
11
1-
0.
1$
0%
#690000
0"
0&
0/
#695000
1"
1&
1/
13
15
04
01
0-
1.
0$
1%
#725000
0"
0&
0/
#740000
1"
1&
1/
03
05
14
11
1-
0.
1$
0%
#745000
0"
0&
0/
#765000
1"
1&
1/
13
15
04
01
0-
1.
0$
1%
#770000
0"
0&
0/
#775000
1"
1&
1/
03
05
14
11
1-
0.
1$
0%
#795000
0"
0&
0/
#800000
1"
1&
1/
13
15
04
01
0-
1.
0$
1%
#805000
0"
0&
0/
#820000
1"
1&
1/
03
05
14
11
1-
0.
1$
0%
#840000
0"
0&
0/
#845000
1"
1&
1/
13
15
04
01
0-
1.
0$
1%
#855000
0"
0&
0/
#860000
1"
1&
1/
03
05
14
11
1-
0.
1$
0%
#865000
0"
0&
0/
#900000
1"
1&
1/
13
15
04
01
0-
1.
0$
1%
#910000
0"
0&
0/
#920000
1"
1&
1/
03
05
14
11
1-
0.
1$
0%
#925000
0"
0&
0/
#930000
1"
1&
1/
13
15
04
01
0-
1.
0$
1%
#945000
0"
0&
0/
#950000
1"
1&
1/
03
05
14
11
1-
0.
1$
0%
#965000
0"
0&
0/
#975000
1"
1&
1/
13
15
04
01
0-
1.
0$
1%
#980000
0"
0&
0/
#990000
1"
1&
1/
03
05
14
11
1-
0.
1$
0%
