Código_Maq_Mealy/verificaMealy/simulation/qsim/verificamoore3.msim.vcd
$comment
	File created using the following command:
		vcd file verificamoore3.msim.vcd -direction
$end
$date
	Sat Jun 06 19:52:52 2020
$end
$version
	ModelSim Version 10.3d
$end
$timescale
	1ps
$end

$scope module verificamoore3_vlg_vec_tst $end
$var reg 1 ! clk $end
$var reg 1 " start $end
$var wire 1 # saida_mealy $end
$var wire 1 $ saida_moore $end
$var wire 1 % sampler $end

$scope module i1 $end
$var wire 1 & gnd $end
$var wire 1 ' vcc $end
$var wire 1 ( unknown $end
$var tri1 1 ) devclrn $end
$var tri1 1 * devpor $end
$var tri1 1 + devoe $end
$var wire 1 , clk~input_o $end
$var wire 1 - start~input_o $end
$var wire 1 . saida_moore~output_o $end
$var wire 1 / saida_mealy~output_o $end
$upscope $end
$upscope $end
$enddefinitions $end
#0
$dumpvars
0!
1"
0#
0$
x%
0&
1'
x(
1)
1*
1+
0,
1-
0.
0/
$end
#30000
1!
1,
0%
#55000
0!
0,
1%
#65000
1!
1,
0%
#80000
0!
0,
1%
#100000
1!
1,
0%
#105000
0!
0,
1%
#110000
1!
1,
0%
#115000
0!
0,
1%
#130000
1!
1,
0%
#135000
0!
0,
1%
#160000
1!
1,
0%
#165000
0!
0,
1%
#170000
1!
1,
0%
#175000
0!
0,
1%
#180000
1!
1,
0%
#185000
0!
0,
1%
#190000
1!
1,
0%
#210000
0!
0,
1%
#220000
1!
1,
0%
#230000
0!
0,
1%
#240000
1!
1,
0%
#245000
0!
0,
1%
#285000
1!
1,
0%
#290000
0!
0,
1%
#295000
1!
1,
0%
#305000
0!
0,
1%
#330000
1!
1,
0%
#335000
0!
0,
1%
#345000
1!
1,
0%
#355000
0!
0,
1%
#370000
1!
1,
0%
#380000
0!
0,
1%
#395000
1!
1,
0%
#420000
0!
0,
1%
#425000
1!
1,
0%
#435000
0!
0,
1%
#440000
1!
1,
0%
#450000
0!
0,
1%
#455000
1!
1,
0%
#460000
0!
0,
1%
#465000
1!
1,
0%
#480000
0!
0,
1%
#490000
1!
1,
0%
#500000
0!
0,
1%
#505000
1!
1,
0%
#535000
0!
0,
1%
#555000
1!
1,
0%
#575000
0!
0,
1%
#580000
1!
1,
0%
#605000
0!
0,
1%
#625000
1!
1,
0%
#630000
0!
0,
1%
#635000
1!
1,
0%
#640000
0!
0,
1%
#655000
1!
1,
0%
#665000
0!
0,
1%
#700000
1!
1,
0%
#705000
0!
0,
1%
#720000
1!
1,
0%
#725000
0!
0,
1%
#730000
1!
1,
0%
#735000
0!
0,
1%
#740000
1!
1,
0%
#745000
0!
0,
1%
#750000
1!
1,
0%
#755000
0!
0,
1%
#770000
1!
1,
0%
#785000
0!
0,
1%
#795000
1!
1,
0%
#800000
0!
0,
1%
#805000
1!
1,
0%
#825000
0!
0,
1%
#835000
1!
1,
0%
#840000
0!
0,
1%
#845000
1!
1,
0%
#860000
0!
0,
1%
#870000
1!
1,
0%
#880000
0!
0,
1%
#885000
1!
1,
0%
#900000
0!
0,
1%
#905000
1!
1,
0%
#910000
0!
0,
1%
#925000
1!
1,
0%
#930000
0!
0,
1%
#955000
1!
1,
0%
#970000
0!
0,
1%
#980000
1!
1,
0%
#990000
0!
0,
1%
#995000
1!
1,
0%
