Código_Maq_Moore/mooremachine/simulation/qsim/mooremachine.msim.vcd
$comment
	File created using the following command:
		vcd file mooremachine.msim.vcd -direction
$end
$date
	Thu Jun 04 23:19:02 2020
$end
$version
	ModelSim Version 10.3d
$end
$timescale
	1ps
$end

$scope module mooremachine_vlg_vec_tst $end
$var reg 1 ! clk $end
$var reg 1 " en0 $end
$var reg 1 # en1 $end
$var reg 1 $ en2 $end
$var reg 1 % en3 $end
$var reg 1 & reset $end
$var wire 1 ' a $end
$var wire 1 ( b $end
$var wire 1 ) c $end
$var wire 1 * d $end
$var wire 1 + e $end
$var wire 1 , f $end
$var wire 1 - g $end
$var wire 1 . saida [2] $end
$var wire 1 / saida [1] $end
$var wire 1 0 saida [0] $end
$var wire 1 1 sampler $end

$scope module i1 $end
$var wire 1 2 gnd $end
$var wire 1 3 vcc $end
$var wire 1 4 unknown $end
$var tri1 1 5 devclrn $end
$var tri1 1 6 devpor $end
$var tri1 1 7 devoe $end
$var wire 1 8 saida[0]~output_o $end
$var wire 1 9 saida[1]~output_o $end
$var wire 1 : saida[2]~output_o $end
$var wire 1 ; a~output_o $end
$var wire 1 < b~output_o $end
$var wire 1 = c~output_o $end
$var wire 1 > d~output_o $end
$var wire 1 ? e~output_o $end
$var wire 1 @ f~output_o $end
$var wire 1 A g~output_o $end
$var wire 1 B clk~input_o $end
$var wire 1 C Mux0~0_combout $end
$var wire 1 D reset~input_o $end
$var wire 1 E saida[2]~reg0_q $end
$var wire 1 F Mux1~0_combout $end
$var wire 1 G saida[1]~reg0_q $end
$var wire 1 H Mux2~0_combout $end
$var wire 1 I saida[0]~reg0_q $end
$var wire 1 J en1~input_o $end
$var wire 1 K en3~input_o $end
$var wire 1 L en0~input_o $end
$var wire 1 M en2~input_o $end
$var wire 1 N a~0_combout $end
$var wire 1 O a~1_combout $end
$var wire 1 P a~reg0_q $end
$var wire 1 Q b~0_combout $end
$var wire 1 R b~1_combout $end
$var wire 1 S b~reg0_q $end
$var wire 1 T c~0_combout $end
$var wire 1 U c~1_combout $end
$var wire 1 V c~reg0_q $end
$var wire 1 W d~0_combout $end
$var wire 1 X d~reg0_q $end
$var wire 1 Y e~0_combout $end
$var wire 1 Z e~1_combout $end
$var wire 1 [ e~reg0_q $end
$var wire 1 \ f~0_combout $end
$var wire 1 ] f~1_combout $end
$var wire 1 ^ f~reg0_q $end
$var wire 1 _ g~0_combout $end
$var wire 1 ` g~1_combout $end
$var wire 1 a g~reg0_q $end
$upscope $end
$upscope $end
$enddefinitions $end
#0
$dumpvars
1!
0"
0#
0$
0%
1&
0'
0(
0)
0*
0+
0,
0-
00
0/
0.
x1
02
13
x4
15
16
17
08
09
0:
0;
0<
0=
0>
0?
0@
0A
1B
0C
1D
0E
0F
0G
1H
0I
0J
0K
0L
0M
1N
0O
0P
0Q
0R
0S
1T
0U
0V
1W
0X
1Y
0Z
0[
0\
0]
0^
1_
0`
0a
$end
#25000
0!
01
0B
#30000
1!
11
1B
#35000
0!
01
0B
#40000
1!
11
1B
#45000
0!
01
0B
#50000
1!
11
1B
#75000
0!
01
0B
#85000
1!
11
1B
#95000
0!
01
0B
#110000
1!
11
1B
#120000
0!
01
0B
#130000
1!
11
1B
#140000
0!
01
0B
#150000
1!
11
1B
#155000
0!
01
0B
#165000
1!
11
1B
#185000
0!
01
0B
#190000
1!
11
1B
#195000
0!
01
0B
#210000
1!
11
1B
#215000
0!
01
0B
#220000
1!
11
1B
#240000
0!
01
0B
#260000
1!
11
1B
#265000
0!
01
0B
#285000
1!
11
1B
#290000
0!
01
0B
#315000
1!
11
1B
#320000
0!
01
0B
#325000
1!
11
1B
#330000
0!
01
0B
#340000
1!
11
1B
#345000
0!
01
0B
#350000
1!
11
1B
#370000
0!
01
0B
#375000
1!
11
1B
#385000
0!
01
0B
#390000
1!
11
1B
#400000
0!
01
0B
#420000
1!
11
1B
#425000
0!
01
0B
#440000
1!
11
1B
#450000
0!
01
0B
#460000
1!
11
1B
#465000
0!
01
0B
#470000
1!
11
1B
#475000
0!
01
0B
#480000
1!
11
1B
#490000
0!
01
0B
#510000
1!
11
1B
#515000
0!
01
0B
#530000
1!
11
1B
#540000
0!
01
0B
#545000
1!
11
1B
#550000
0!
01
0B
#560000
1!
11
1B
#565000
0!
01
0B
#570000
1!
11
1B
#585000
0!
01
0B
#590000
1!
11
1B
#595000
0!
01
0B
#600000
1!
11
1B
#605000
0!
01
0B
#610000
1!
11
1B
#625000
0!
01
0B
#630000
1!
11
1B
#640000
0!
01
0B
#645000
1!
11
1B
#670000
0!
01
0B
#690000
1!
11
1B
#695000
0!
01
0B
#715000
1!
11
1B
#720000
0!
01
0B
#725000
1!
11
1B
#750000
0!
01
0B
#760000
1!
11
1B
#770000
0!
01
0B
#775000
1!
11
1B
#780000
0!
01
0B
#785000
1!
11
1B
#790000
0!
01
0B
#795000
1!
11
1B
#815000
0!
01
0B
#820000
1!
11
1B
#825000
0!
01
0B
#835000
1!
11
1B
#840000
0!
01
0B
#845000
1!
11
1B
#850000
0!
01
0B
#885000
1!
11
1B
#890000
0!
01
0B
#910000
1!
11
1B
#915000
0!
01
0B
#920000
1!
11
1B
#950000
0!
01
0B
#955000
1!
11
1B
#970000
0!
01
0B
#980000
1!
11
1B
