Código_Maq_Moore/moore_bit_vector/simulation/qsim/aula09.msim.vcd
$comment
	File created using the following command:
		vcd file aula09.msim.vcd -direction
$end
$date
	Wed Jun 10 19:59:35 2020
$end
$version
	ModelSim Version 10.3d
$end
$timescale
	1ps
$end

$scope module aula09_vlg_vec_tst $end
$var reg 1 ! clk $end
$var reg 1 " start $end
$var wire 1 # s1 [1] $end
$var wire 1 $ s1 [0] $end
$var wire 1 % s2 [1] $end
$var wire 1 & s2 [0] $end
$var wire 1 ' s3 [1] $end
$var wire 1 ( s3 [0] $end
$var wire 1 ) sampler $end

$scope module i1 $end
$var wire 1 * gnd $end
$var wire 1 + vcc $end
$var wire 1 , unknown $end
$var tri1 1 - devclrn $end
$var tri1 1 . devpor $end
$var tri1 1 / devoe $end
$var wire 1 0 s1[0]~output_o $end
$var wire 1 1 s1[1]~output_o $end
$var wire 1 2 s2[0]~output_o $end
$var wire 1 3 s2[1]~output_o $end
$var wire 1 4 s3[0]~output_o $end
$var wire 1 5 s3[1]~output_o $end
$var wire 1 6 clk~input_o $end
$var wire 1 7 stateMoore_reg.um~0_combout $end
$var wire 1 8 start~input_o $end
$var wire 1 9 stateMoore_reg.um~q $end
$var wire 1 : stateMoore_reg.dois~q $end
$var wire 1 ; stateMoore_reg.zero~0_combout $end
$var wire 1 < stateMoore_reg.zero~q $end
$upscope $end
$upscope $end
$enddefinitions $end
#0
$dumpvars
1!
1"
1$
1#
0&
0%
0(
0'
x)
0*
1+
x,
1-
1.
1/
10
11
02
03
04
05
16
17
18
09
0:
1;
0<
$end
#5000
0!
0)
06
#20000
0"
08
1)
#25000
1!
0)
16
1<
19
12
13
01
00
1&
1%
0#
0$
07
#30000
0!
1)
06
#35000
1!
0)
16
1:
09
02
03
14
15
0&
0%
1(
1'
0;
#40000
1"
18
1)
0<
0:
04
05
11
10
0(
0'
1#
1$
17
1;
#50000
0"
08
0)
#60000
1"
18
1)
#65000
0!
0)
06
#70000
0"
08
1)
#75000
1!
1"
18
0)
16
#85000
0"
08
1)
#90000
0!
0)
06
#100000
1!
1)
16
1<
19
12
13
01
00
1&
1%
0#
0$
07
#105000
0!
0)
06
#110000
1!
1)
16
1:
09
02
03
14
15
0&
0%
1(
1'
0;
#115000
0!
0)
06
#135000
1"
1!
18
1)
16
0<
0:
04
05
11
10
0(
0'
1#
1$
17
1;
#140000
0!
0)
06
#145000
0"
08
1)
#155000
1!
0)
16
1<
19
12
13
01
00
1&
1%
0#
0$
07
#160000
1"
0!
18
1)
06
0<
09
02
03
11
10
0&
0%
1#
1$
17
#165000
1!
0)
16
#175000
0!
1)
06
#180000
0"
08
0)
#200000
1!
1"
18
1)
16
#205000
0"
08
0)
#210000
0!
1"
18
1)
06
#215000
1!
0"
08
0)
16
1<
19
12
13
01
00
1&
1%
0#
0$
07
#220000
0!
1)
06
#235000
1!
0)
16
1:
09
02
03
14
15
0&
0%
1(
1'
0;
#240000
0!
1)
06
#245000
1!
0)
16
0<
0:
04
05
11
10
0(
0'
1#
1$
17
1;
#250000
0!
1)
06
#255000
1"
1!
18
0)
16
#260000
0!
1)
06
#280000
0"
08
0)
#285000
1!
1)
16
1<
19
12
13
01
00
1&
1%
0#
0$
07
#290000
1"
18
0)
0<
09
02
03
11
10
0&
0%
1#
1$
17
#300000
0!
1)
06
#305000
0"
08
0)
#325000
1"
18
1)
#330000
1!
0"
08
0)
16
1<
19
12
13
01
00
1&
1%
0#
0$
07
#335000
0!
1"
18
1)
06
0<
09
02
03
11
10
0&
0%
1#
1$
17
#340000
1!
0"
08
0)
16
1<
19
12
13
01
00
1&
1%
0#
0$
07
#350000
0!
1)
06
#355000
1"
1!
18
0)
16
0<
09
02
03
11
10
0&
0%
1#
1$
17
#360000
0"
08
1)
#370000
0!
0)
06
#375000
1!
1)
16
1<
19
12
13
01
00
1&
1%
0#
0$
07
#385000
1"
18
0)
0<
09
02
03
11
10
0&
0%
1#
1$
17
#390000
0!
0"
08
1)
06
#395000
1"
18
0)
#400000
0"
08
1)
#405000
1!
1"
18
0)
16
#410000
0"
08
1)
#415000
1"
18
0)
#425000
0!
1)
06
#430000
1!
0)
16
#435000
0"
08
1)
#440000
0!
0)
06
#445000
1"
18
1)
#450000
1!
0)
16
#455000
0"
0!
08
1)
06
#460000
1!
0)
16
1<
19
12
13
01
00
1&
1%
0#
0$
07
#465000
1"
18
1)
0<
09
02
03
11
10
0&
0%
1#
1$
17
#470000
0!
0"
08
0)
06
#475000
1!
1)
16
1<
19
12
13
01
00
1&
1%
0#
0$
07
#485000
0!
0)
06
#495000
1!
1)
16
1:
09
02
03
14
15
0&
0%
1(
1'
0;
#500000
0!
0)
06
#510000
1"
1!
18
1)
16
0<
0:
04
05
11
10
0(
0'
1#
1$
17
1;
#515000
0"
08
0)
#520000
1"
18
1)
#530000
0"
08
0)
#550000
0!
1)
06
#555000
1"
1!
18
0)
16
#560000
0"
0!
08
1)
06
#565000
1!
0)
16
1<
19
12
13
01
00
1&
1%
0#
0$
07
#570000
1"
0!
18
1)
06
0<
09
02
03
11
10
0&
0%
1#
1$
17
#575000
1!
0)
16
#580000
0"
08
1)
#585000
0!
0)
06
#590000
1!
1)
16
1<
19
12
13
01
00
1&
1%
0#
0$
07
#595000
1"
0!
18
0)
06
0<
09
02
03
11
10
0&
0%
1#
1$
17
#605000
0"
1!
08
1)
16
1<
19
12
13
01
00
1&
1%
0#
0$
07
#615000
0!
0)
06
#620000
1"
18
1)
0<
09
02
03
11
10
0&
0%
1#
1$
17
#625000
1!
0)
16
#640000
0!
1)
06
#645000
0"
1!
08
0)
16
1<
19
12
13
01
00
1&
1%
0#
0$
07
#650000
1"
0!
18
1)
06
0<
09
02
03
11
10
0&
0%
1#
1$
17
#660000
0"
08
0)
#665000
1!
1"
18
1)
16
#675000
0!
0"
08
0)
06
#680000
1!
1"
18
1)
16
#685000
0!
0"
08
0)
06
#690000
1!
1"
18
1)
16
#695000
0!
0)
06
#705000
0"
1!
08
1)
16
1<
19
12
13
01
00
1&
1%
0#
0$
07
#715000
1"
18
0)
0<
09
02
03
11
10
0&
0%
1#
1$
17
#720000
0!
1)
06
#725000
0"
08
0)
#730000
1!
1"
18
1)
16
#745000
0!
0)
06
#750000
1!
1)
16
#755000
0!
0)
06
#760000
0"
1!
08
1)
16
1<
19
12
13
01
00
1&
1%
0#
0$
07
#770000
0!
0)
06
#775000
1!
1)
16
1:
09
02
03
14
15
0&
0%
1(
1'
0;
#780000
1"
0!
18
0)
06
0<
0:
04
05
11
10
0(
0'
1#
1$
17
1;
#785000
1!
1)
16
#800000
0"
0!
08
0)
06
#805000
1"
1!
18
1)
16
#825000
0!
0)
06
#830000
0"
08
1)
#835000
1!
0)
16
1<
19
12
13
01
00
1&
1%
0#
0$
07
#840000
0!
1)
06
#850000
1"
18
0)
0<
09
02
03
11
10
0&
0%
1#
1$
17
#855000
1!
0"
08
1)
16
1<
19
12
13
01
00
1&
1%
0#
0$
07
#860000
1"
18
0)
0<
09
02
03
11
10
0&
0%
1#
1$
17
#865000
0!
0"
08
1)
06
#870000
1!
0)
16
1<
19
12
13
01
00
1&
1%
0#
0$
07
#875000
0!
1)
06
#880000
1"
1!
18
0)
16
0<
09
02
03
11
10
0&
0%
1#
1$
17
#890000
0"
0!
08
1)
06
#900000
1!
0)
16
1<
19
12
13
01
00
1&
1%
0#
0$
07
#905000
0!
1)
06
#910000
1!
0)
16
1:
09
02
03
14
15
0&
0%
1(
1'
0;
#920000
0!
1)
06
#925000
1"
1!
18
0)
16
0<
0:
04
05
11
10
0(
0'
1#
1$
17
1;
#930000
0"
0!
08
1)
06
#935000
1!
0)
16
1<
19
12
13
01
00
1&
1%
0#
0$
07
#945000
1"
0!
18
1)
06
0<
09
02
03
11
10
0&
0%
1#
1$
17
#950000
0"
08
0)
#955000
1"
18
1)
#960000
0"
08
0)
#965000
1"
18
1)
#970000
0"
08
0)
#975000
1!
1"
18
1)
16
#980000
0"
08
0)
#995000
1"
18
1)
