Aulas_Recuperação/aula02junhoexerc2/simulation/qsim/aula02junhoexerc2.msim.vcd
$comment
	File created using the following command:
		vcd file aula02junhoexerc2.msim.vcd -direction
$end
$date
	Tue Jun 02 23:43:30 2020
$end
$version
	ModelSim Version 10.3d
$end
$timescale
	1ps
$end

$scope module aula02junhoexerc2_vlg_vec_tst $end
$var reg 1 ! clk $end
$var wire 1 " saida $end
$var wire 1 # sampler $end

$scope module i1 $end
$var wire 1 $ gnd $end
$var wire 1 % vcc $end
$var wire 1 & unknown $end
$var tri1 1 ' devclrn $end
$var tri1 1 ( devpor $end
$var tri1 1 ) devoe $end
$var wire 1 * ~QUARTUS_CREATED_GND~I_combout $end
$var wire 1 + clk~input_o $end
$upscope $end
$upscope $end
$enddefinitions $end
#0
$dumpvars
0!
0"
x#
0$
1%
x&
1'
1(
1)
0*
0+
$end
#15000
1!
0#
1+
1"
#20000
0!
1#
0+
0"
#30000
1!
0#
1+
1"
#65000
0!
1#
0+
0"
#75000
1!
0#
1+
1"
#95000
0!
1#
0+
0"
#105000
1!
0#
1+
1"
#130000
0!
1#
0+
0"
#135000
1!
0#
1+
1"
#165000
0!
1#
0+
0"
#175000
1!
0#
1+
1"
#190000
0!
1#
0+
0"
#195000
1!
0#
1+
1"
#200000
0!
1#
0+
0"
#215000
1!
0#
1+
1"
#245000
0!
1#
0+
0"
#250000
1!
0#
1+
1"
#260000
0!
1#
0+
0"
#270000
1!
0#
1+
1"
#280000
0!
1#
0+
0"
#295000
1!
0#
1+
1"
#305000
0!
1#
0+
0"
#310000
1!
0#
1+
1"
#315000
0!
1#
0+
0"
#325000
1!
0#
1+
1"
#330000
0!
1#
0+
0"
#340000
1!
0#
1+
1"
#355000
0!
1#
0+
0"
#360000
1!
0#
1+
1"
#365000
0!
1#
0+
0"
#380000
1!
0#
1+
1"
#395000
0!
1#
0+
0"
#405000
1!
0#
1+
1"
#410000
0!
1#
0+
0"
#425000
1!
0#
1+
1"
#435000
0!
1#
0+
0"
#440000
1!
0#
1+
1"
#455000
0!
1#
0+
0"
#470000
1!
0#
1+
1"
#485000
0!
1#
0+
0"
#500000
1!
0#
1+
1"
#505000
0!
1#
0+
0"
#520000
1!
0#
1+
1"
#530000
0!
1#
0+
0"
#545000
1!
0#
1+
1"
#550000
0!
1#
0+
0"
#555000
1!
0#
1+
1"
#560000
0!
1#
0+
0"
#570000
1!
0#
1+
1"
#585000
0!
1#
0+
0"
#595000
1!
0#
1+
1"
#640000
0!
1#
0+
0"
#655000
1!
0#
1+
1"
#660000
0!
1#
0+
0"
#670000
1!
0#
1+
1"
#685000
0!
1#
0+
0"
#690000
1!
0#
1+
1"
#710000
0!
1#
0+
0"
#720000
1!
0#
1+
1"
#725000
0!
1#
0+
0"
#745000
1!
0#
1+
1"
#760000
0!
1#
0+
0"
#785000
1!
0#
1+
1"
#805000
0!
1#
0+
0"
#810000
1!
0#
1+
1"
#820000
0!
1#
0+
0"
#825000
1!
0#
1+
1"
#830000
0!
1#
0+
0"
#835000
1!
0#
1+
1"
#840000
0!
1#
0+
0"
#855000
1!
0#
1+
1"
#895000
0!
1#
0+
0"
#900000
1!
0#
1+
1"
#910000
0!
1#
0+
0"
#925000
1!
0#
1+
1"
#930000
0!
1#
0+
0"
#935000
1!
0#
1+
1"
#945000
0!
1#
0+
0"
#950000
1!
0#
1+
1"
#965000
0!
1#
0+
0"
#970000
1!
0#
1+
1"
#975000
0!
1#
0+
0"
#985000
1!
0#
1+
1"
